# Blender v2.74 (sub 0) OBJ File: 'building05.blend'
# www.blender.org
mtllib pillar.mtl
o Cube.054_Cube.010
v 0.680548 -0.680548 0.000071
v -0.680548 -0.680548 0.000071
v -0.680548 0.680548 0.000071
v 0.680548 0.680548 0.000071
v 0.680548 -0.680548 0.116810
v 0.616988 -0.616988 0.121247
v -0.616988 -0.616988 0.121247
v -0.616988 0.616988 0.121247
v 0.616988 0.616988 0.121247
v 0.629007 -0.629007 0.129573
v -0.629007 -0.629007 0.129573
v -0.629007 0.629007 0.129573
v 0.629007 0.629007 0.129573
v 0.659159 -0.659159 0.131525
v -0.659159 -0.659159 0.131525
v -0.659159 0.659159 0.131525
v 0.659159 0.659159 0.131525
v 0.625183 0.625183 0.140143
v -0.625183 0.625183 0.140143
v -0.625183 -0.625183 0.140143
v 0.625183 -0.625183 0.140143
v 0.597243 -0.572784 0.161137
v -0.572784 -0.572784 0.161137
v 0.551910 -0.572784 0.252988
v -0.556225 -0.572784 0.252988
v -0.649302 -0.649302 0.118991
v -0.680548 -0.680548 0.115947
v -0.632238 -0.680548 0.116810
v -0.680548 0.680548 0.108204
v -0.649302 0.649302 0.118991
v 0.680548 0.680548 0.116915
v 0.649302 0.649302 0.118991
v 0.680548 0.606962 0.116810
v 0.469483 -0.497498 0.215989
v -0.480645 -0.497498 0.215989
v -0.480645 0.497498 0.215989
v 0.469483 0.497498 0.215989
v 0.469483 -0.497498 0.938113
v -0.480645 -0.497498 0.938113
v -0.480645 0.497498 0.938113
v 0.469483 0.497498 0.938113
v 0.551910 -0.572784 0.336534
v -0.556225 -0.572784 0.336534
v -0.556225 -0.572784 0.258716
v 0.551910 -0.572784 0.258716
v 0.551910 -0.572784 0.342367
v -0.556225 -0.572784 0.342367
v 0.551910 -0.572784 0.419384
v -0.556225 -0.572784 0.419384
v -0.424615 0.553858 0.342367
v -0.556225 0.455904 0.342367
v -0.499067 0.555503 0.350293
v -0.556225 0.501014 0.347606
v 0.468855 0.553858 0.342367
v 0.538827 0.494204 0.342367
v 0.454145 0.566796 0.252988
v 0.549679 0.458856 0.252988
v -0.442802 0.572318 0.252988
v -0.556225 0.443295 0.252988
v 0.545589 -0.572784 0.425057
v -0.556225 -0.572784 0.425057
v 0.545589 -0.572784 0.504433
v -0.556225 -0.572784 0.504433
v 0.447776 0.574427 0.425057
v 0.545589 0.502782 0.425057
v 0.545589 0.545329 0.504433
v 0.486901 0.614258 0.504433
v -0.370819 0.600999 0.504433
v -0.461271 0.562307 0.504433
v -0.494855 0.528203 0.504433
v -0.556225 0.527915 0.500235
v -0.556225 0.437167 0.504433
v -0.461642 0.599605 0.500225
v 0.545589 -0.572784 0.458629
v -0.556225 -0.572784 0.458629
v 0.545589 0.546460 0.450274
v 0.498553 0.589525 0.447098
v -0.556225 0.524626 0.425057
v -0.428370 0.597584 0.425057
v 0.551910 -0.572784 0.510586
v -0.556225 -0.572784 0.510586
v 0.551910 -0.572784 0.586794
v -0.556225 -0.572784 0.586794
v 0.459385 0.575224 0.510586
v 0.524370 0.531508 0.510586
v 0.524370 0.531508 0.586794
v 0.459385 0.575224 0.586794
v 0.524370 0.531508 0.556986
v 0.459385 0.575224 0.556986
v 0.524370 0.509257 0.574043
v 0.443362 0.575224 0.571890
v -0.556225 0.546838 0.510586
v -0.489036 0.589348 0.510586
v -0.489036 0.589348 0.586794
v -0.556225 0.546838 0.586794
v -0.469866 0.589348 0.527931
v -0.556225 0.530988 0.530461
v -0.556225 0.546838 0.542836
v -0.489036 0.589339 0.542836
v -0.499065 0.572784 0.419384
v -0.556225 0.518653 0.419384
v -0.501530 0.599060 0.487055
v -0.556225 0.563499 0.487044
v -0.556225 0.563499 0.427402
v -0.478316 0.597965 0.429412
v 0.539083 0.539770 0.336534
v 0.468323 0.572784 0.336534
v 0.468323 0.572784 0.265930
v 0.539083 0.539770 0.265930
v 0.472801 0.539939 0.258716
v 0.341609 0.572784 0.258716
v 0.452342 0.572784 0.262841
v 0.520708 0.506203 0.258716
v 0.539194 0.499069 0.263547
v 0.540148 0.397135 0.258716
v -0.556225 0.529766 0.258716
v -0.495518 0.572784 0.258716
v -0.499633 0.572784 0.336534
v -0.556225 0.509411 0.336534
v -0.572784 0.539610 0.161135
v -0.539510 0.573303 0.161135
v -0.596071 0.596071 0.160691
v -0.498590 0.572576 0.242913
v -0.558315 0.488222 0.245907
v 0.557247 0.590409 0.161084
v 0.595969 0.551983 0.161084
v 0.621929 0.619037 0.160425
v 0.574747 0.514299 0.225221
v 0.568257 0.569342 0.221944
v 0.551910 -0.572784 0.675087
v -0.556225 -0.572784 0.675087
v 0.524370 0.531508 0.675087
v 0.459385 0.575224 0.675087
v 0.551910 -0.572784 0.754371
v -0.556225 -0.572784 0.754371
v 0.524370 0.531508 0.754371
v 0.459385 0.575224 0.754371
v 0.541168 -0.572784 0.839489
v -0.566967 -0.572784 0.839489
v 0.459385 0.575224 0.714467
v 0.524370 0.531508 0.714467
v 0.524370 0.497189 0.738280
v 0.452255 0.575224 0.740964
v -0.489036 0.589348 0.750865
v -0.444957 0.588721 0.754371
v -0.556225 0.502755 0.754371
v -0.556225 0.546838 0.750865
v -0.432205 0.588540 0.675087
v -0.489036 0.589348 0.679608
v -0.556225 0.546838 0.679608
v -0.556225 0.490001 0.675087
v 0.551910 -0.572784 0.591836
v -0.556225 -0.572784 0.591836
v 0.551910 -0.572784 0.668853
v -0.556225 -0.572784 0.668853
v -0.446977 0.553858 0.591836
v -0.556225 0.468680 0.591836
v -0.499067 0.555503 0.597267
v -0.556225 0.501014 0.597075
v 0.468855 0.553858 0.591836
v 0.538827 0.494204 0.591836
v 0.538821 0.512885 0.668853
v 0.468855 0.572784 0.668853
v -0.499065 0.572784 0.668853
v -0.556225 0.518653 0.668853
v 0.538821 0.511798 0.412474
v 0.539595 0.448674 0.419384
v 0.381382 0.572784 0.419384
v 0.468855 0.571682 0.410532
v 0.541168 -0.572784 0.761670
v -0.566967 -0.572784 0.761670
v -0.566967 -0.572784 0.845322
v 0.541168 -0.572784 0.845322
v -0.566967 -0.572784 0.922339
v 0.541168 -0.572784 0.922339
v 0.412831 0.553858 0.845322
v 0.541168 0.455904 0.845322
v 0.487282 0.555503 0.853247
v 0.541168 0.501014 0.850561
v -0.480639 0.553858 0.845322
v -0.553884 0.494204 0.845322
v 0.487281 0.572784 0.922339
v 0.541168 0.518653 0.922339
v -0.554141 0.539770 0.839489
v -0.480108 0.572784 0.839489
v -0.480108 0.572784 0.768885
v -0.554141 0.539770 0.768885
v -0.484585 0.539939 0.761670
v -0.353394 0.572784 0.761670
v -0.464127 0.572784 0.765796
v -0.511695 0.506203 0.761670
v -0.554252 0.499069 0.766502
v -0.555205 0.397135 0.761670
v 0.541168 0.529766 0.761670
v 0.483733 0.572784 0.761670
v 0.508646 0.572784 0.839489
v 0.541168 0.509411 0.839489
v -0.553878 0.511798 0.915428
v -0.554652 0.448674 0.922339
v -0.393167 0.572784 0.922339
v -0.480639 0.571682 0.913487
v 0.659159 -0.659159 0.139258
v -0.659159 -0.659159 0.139258
v -0.659159 0.659159 0.139258
v -0.640669 0.640695 0.159730
v 0.659159 0.659159 0.139258
v 0.642988 0.642238 0.159730
v 0.601841 0.601841 0.149270
v -0.601841 0.601841 0.149270
v -0.601841 -0.601841 0.149270
v 0.601841 -0.601841 0.149270
v 0.642613 0.642613 0.149665
v -0.642613 0.642613 0.149665
v -0.642613 -0.642613 0.149665
v 0.642613 -0.642613 0.149665
v -0.642613 -0.642613 0.159713
v 0.642613 -0.642613 0.159713
v 0.626715 -0.669485 0.956706
v 0.626715 0.660681 0.956706
v -0.654791 -0.669485 0.956706
v -0.654790 0.660681 0.956706
v 0.626715 -0.669485 0.918826
v 0.580952 -0.623721 0.913894
v -0.654791 -0.669485 0.918826
v -0.609027 -0.623721 0.913894
v -0.654790 0.660681 0.918826
v -0.609027 0.614917 0.913894
v 0.626715 0.660681 0.918826
v 0.580952 0.614917 0.913894
v 0.651164 -0.694862 0.956706
v 0.651164 0.686058 0.956706
v -0.679240 -0.694862 0.956706
v -0.679239 0.686058 0.956706
v 0.651164 -0.694862 0.963119
v 0.651164 0.686058 0.963119
v -0.679240 -0.694862 0.963119
v -0.679239 0.686058 0.963119
v 0.618484 -0.660941 0.963119
v 0.618484 0.652137 0.963119
v -0.646560 -0.660941 0.963119
v -0.646560 0.652137 0.963119
v 0.723599 -0.770047 0.993799
v 0.723599 0.761243 0.993799
v -0.751674 -0.770047 0.993799
v -0.751674 0.761243 0.993799
v 0.744272 -0.791505 0.993799
v 0.744272 0.782701 0.993799
v -0.772347 -0.791505 0.993799
v -0.772347 0.782701 0.993799
v 0.744272 -0.791505 1.000071
v 0.744272 0.782701 1.000071
v -0.772347 -0.791505 1.000071
v -0.772347 0.782701 1.000071
vt 0.425617 0.494477
vt 0.420553 0.593821
vt 0.349840 0.593823
vt 0.349840 0.494479
vt 0.464147 0.382928
vt 0.556716 0.381546
vt 0.554734 0.384030
vt 0.466772 0.385343
vt 0.464147 0.477499
vt 0.466772 0.475207
vt 0.558632 0.478266
vt 0.466854 0.479636
vt 0.554734 0.473894
vt 0.349840 0.364510
vt 0.349840 0.265166
vt 0.449238 0.265166
vt 0.449238 0.364510
vt 0.247093 0.894981
vt 0.247093 0.985001
vt 0.241628 0.985855
vt 0.241628 0.894080
vt 0.573240 0.478460
vt 0.573309 0.473092
vt 0.573309 0.379166
vt 0.649634 0.379107
vt 0.649634 0.478402
vt 0.638383 0.494317
vt 0.644068 0.593638
vt 0.567818 0.593729
vt 0.567818 0.494401
vt 0.574729 0.364510
vt 0.574729 0.268692
vt 0.575292 0.265166
vt 0.650922 0.265166
vt 0.650922 0.364510
vt 0.557943 0.267366
vt 0.466073 0.267366
vt 0.463846 0.265166
vt 0.560120 0.265166
vt 0.135140 0.984405
vt 0.135140 0.894354
vt 0.140631 0.893487
vt 0.140631 0.985292
vt 0.261702 0.985025
vt 0.261702 0.894959
vt 0.267136 0.894080
vt 0.267136 0.985901
vt 0.115041 0.984430
vt 0.115041 0.894364
vt 0.120532 0.893487
vt 0.120532 0.985307
vt 0.466073 0.359187
vt 0.463846 0.361387
vt 0.557943 0.359187
vt 0.560120 0.361387
vt 0.461624 0.589309
vt 0.461734 0.495825
vt 0.465052 0.499066
vt 0.466738 0.503180
vt 0.465511 0.583067
vt 0.463376 0.587780
vt 0.374560 0.888522
vt 0.374560 0.984695
vt 0.369505 0.984699
vt 0.369505 0.888526
vt 0.354897 0.888522
vt 0.354897 0.984743
vt 0.349840 0.984744
vt 0.349840 0.888522
vt 0.067484 0.776977
vt 0.060846 0.776982
vt 0.062757 0.770819
vt 0.067392 0.767545
vt 0.067253 0.493784
vt 0.067253 0.579182
vt 0.007304 0.575874
vt 0.007304 0.494993
vt 0.558509 0.379107
vt 0.558632 0.382663
vt 0.461624 0.479719
vt 0.427636 0.496762
vt 0.427636 0.591544
vt 0.645273 0.496547
vt 0.645273 0.591315
vt 0.755521 0.574377
vt 0.755439 0.494317
vt 0.808803 0.497217
vt 0.815378 0.501277
vt 0.815378 0.566726
vt 0.795135 0.575089
vt 0.419239 0.778907
vt 0.349840 0.778907
vt 0.349840 0.706298
vt 0.419239 0.706298
vt 0.567818 0.777404
vt 0.567818 0.706521
vt 0.637054 0.707555
vt 0.637054 0.778438
vt 0.167228 0.479138
vt 0.094589 0.479082
vt 0.094589 0.007299
vt 0.167228 0.007354
vt 0.335232 0.478281
vt 0.265844 0.478198
vt 0.265844 0.007299
vt 0.335232 0.007382
vt 0.079980 0.479186
vt 0.007304 0.479185
vt 0.007304 0.007299
vt 0.079980 0.007300
vt 0.251236 0.478267
vt 0.181837 0.478267
vt 0.181837 0.007299
vt 0.251236 0.007299
vt 0.828254 0.265166
vt 0.879043 0.265166
vt 0.879043 0.346047
vt 0.828254 0.346047
vt 0.583179 0.691924
vt 0.573596 0.689527
vt 0.570097 0.687065
vt 0.568677 0.679106
vt 0.567818 0.608327
vt 0.648758 0.608327
vt 0.648758 0.688785
vt 0.644324 0.691924
vt 0.292731 0.874308
vt 0.246656 0.874363
vt 0.244640 0.873199
vt 0.241948 0.865121
vt 0.241948 0.804031
vt 0.292731 0.803670
vt 0.759152 0.878275
vt 0.759197 0.813073
vt 0.764381 0.807640
vt 0.809552 0.807640
vt 0.809507 0.871892
vt 0.803721 0.878277
vt 0.875517 0.801284
vt 0.875517 0.882164
vt 0.825249 0.882164
vt 0.825249 0.801284
vt 0.762369 0.803397
vt 0.758734 0.803339
vt 0.809295 0.803397
vt 0.955192 0.007299
vt 0.955192 0.085168
vt 0.909356 0.086473
vt 0.904838 0.081868
vt 0.904838 0.007322
vt 0.756481 0.136773
vt 0.761592 0.141126
vt 0.762547 0.218989
vt 0.681607 0.218989
vt 0.681607 0.143921
vt 0.691220 0.136773
vt 0.007462 0.677218
vt 0.007304 0.669122
vt 0.025409 0.673117
vt 0.027558 0.677149
vt 0.067366 0.593780
vt 0.067302 0.675836
vt 0.007393 0.593857
vt 0.165132 0.891958
vt 0.165132 0.988164
vt 0.160086 0.988170
vt 0.160086 0.891964
vt 0.322381 0.777257
vt 0.315436 0.784858
vt 0.250074 0.784420
vt 0.241788 0.775124
vt 0.241628 0.702739
vt 0.322381 0.703767
vt 0.780674 0.691190
vt 0.775212 0.609544
vt 0.810621 0.609599
vt 0.810621 0.691168
vt 0.379735 0.793505
vt 0.379735 0.873924
vt 0.349840 0.873924
vt 0.349840 0.793505
vt 0.659630 0.014327
vt 0.664289 0.013808
vt 0.664118 0.020869
vt 0.657177 0.011867
vt 0.657385 0.008613
vt 0.650579 0.009028
vt 0.760267 0.788741
vt 0.758734 0.785904
vt 0.758734 0.705806
vt 0.780688 0.705806
vt 0.810641 0.705805
vt 0.810641 0.779519
vt 0.807896 0.786143
vt 0.799270 0.788740
vt 0.826418 0.136773
vt 0.826748 0.143771
vt 0.818154 0.140861
vt 0.817980 0.136822
vt 0.793821 0.217210
vt 0.777156 0.217155
vt 0.777507 0.210112
vt 0.791959 0.213835
vt 0.773052 0.606295
vt 0.810518 0.604435
vt 0.401647 0.793505
vt 0.401647 0.873924
vt 0.758725 0.691207
vt 0.758725 0.612743
vt 0.777342 0.136778
vt 0.779060 0.136829
vt 0.780530 0.142560
vt 0.777683 0.146205
vt 0.586520 0.222180
vt 0.586520 0.142097
vt 0.595859 0.136773
vt 0.659854 0.138463
vt 0.666999 0.143691
vt 0.666999 0.222180
vt 0.583997 0.091809
vt 0.583807 0.012156
vt 0.588072 0.007299
vt 0.664289 0.092816
vt 0.015942 0.887176
vt 0.026965 0.887123
vt 0.026760 0.891808
vt 0.017035 0.892998
vt 0.057040 0.891743
vt 0.057037 0.960937
vt 0.045716 0.959562
vt 0.035991 0.960982
vt 0.007304 0.961043
vt 0.007307 0.891849
vt 0.057245 0.887059
vt 0.665074 0.383227
vt 0.669763 0.380114
vt 0.738867 0.379107
vt 0.743809 0.382136
vt 0.745002 0.461887
vt 0.664243 0.461887
vt 0.535806 0.604937
vt 0.540552 0.608127
vt 0.542564 0.688712
vt 0.461624 0.688712
vt 0.461624 0.607009
vt 0.466531 0.603907
vt 0.007513 0.887164
vt 0.057245 0.965896
vt 0.044351 0.965945
vt 0.036200 0.965941
vt 0.007513 0.966002
vt 0.894153 0.682811
vt 0.890727 0.679518
vt 0.890727 0.604436
vt 0.941092 0.604435
vt 0.941092 0.684097
vt 0.804696 0.883303
vt 0.758862 0.883303
vt 0.829494 0.150400
vt 0.829494 0.213011
vt 0.292572 0.879428
vt 0.246497 0.879483
vt 0.241790 0.874652
vt 0.825228 0.379111
vt 0.876106 0.379107
vt 0.876077 0.449892
vt 0.872915 0.457330
vt 0.871355 0.460300
vt 0.825194 0.460303
vt 0.876106 0.457894
vt 0.542382 0.782813
vt 0.537253 0.785149
vt 0.466711 0.784927
vt 0.462533 0.780399
vt 0.461624 0.703310
vt 0.542382 0.703564
vt 0.244747 0.879439
vt 0.241628 0.878103
vt 0.241741 0.799544
vt 0.292426 0.799456
vt 0.094589 0.799901
vt 0.145478 0.798415
vt 0.145478 0.878888
vt 0.094589 0.878889
vt 0.469140 0.500721
vt 0.007331 0.776982
vt 0.007304 0.774519
vt 0.007379 0.693327
vt 0.067460 0.693383
vt 0.468250 0.585846
vt 0.067366 0.678729
vt 0.224925 0.891958
vt 0.224925 0.983220
vt 0.219076 0.981516
vt 0.219076 0.893661
vt 0.160291 0.872675
vt 0.160291 0.807628
vt 0.163241 0.803475
vt 0.209742 0.803374
vt 0.212030 0.806585
vt 0.212030 0.872563
vt 0.203281 0.872061
vt 0.185989 0.872619
vt 0.810689 0.265166
vt 0.813645 0.269314
vt 0.813645 0.346885
vt 0.761798 0.346886
vt 0.761798 0.268384
vt 0.764091 0.265167
vt 0.173517 0.606418
vt 0.175529 0.687003
vt 0.094589 0.687003
vt 0.094589 0.609447
vt 0.103647 0.602257
vt 0.168771 0.603228
vt 0.619654 0.793035
vt 0.619654 0.873659
vt 0.593907 0.873663
vt 0.578339 0.871162
vt 0.567818 0.873667
vt 0.567818 0.793044
vt 0.201160 0.877225
vt 0.211825 0.877247
vt 0.059050 0.791580
vt 0.059050 0.872461
vt 0.007304 0.872461
vt 0.007304 0.791580
vt 0.160086 0.877360
vt 0.185784 0.877304
vt 0.429454 0.615088
vt 0.421253 0.608965
vt 0.424615 0.608420
vt 0.429557 0.611448
vt 0.350671 0.613040
vt 0.355361 0.609926
vt 0.430599 0.691700
vt 0.349840 0.691700
vt 0.094589 0.605242
vt 0.099496 0.602140
vt 0.163032 0.798516
vt 0.209533 0.798415
vt 0.898986 0.784812
vt 0.890648 0.786437
vt 0.890648 0.705813
vt 0.940474 0.705805
vt 0.940474 0.786429
vt 0.910137 0.786434
vt 0.939865 0.801284
vt 0.939865 0.882164
vt 0.890125 0.882164
vt 0.890125 0.801284
vt 0.829987 0.576037
vt 0.829987 0.494318
vt 0.858734 0.494317
vt 0.866826 0.495474
vt 0.879824 0.494317
vt 0.879824 0.576036
vt 0.944006 0.265166
vt 0.944006 0.343034
vt 0.893652 0.344421
vt 0.893652 0.265189
vt 0.511891 0.799746
vt 0.511891 0.880627
vt 0.461624 0.880627
vt 0.461624 0.799746
vt 0.847677 0.136814
vt 0.848060 0.141058
vt 0.844506 0.144859
vt 0.844103 0.136773
vt 0.894859 0.141058
vt 0.894602 0.136815
vt 0.894518 0.216720
vt 0.844168 0.216720
vt 0.844458 0.211693
vt 0.894809 0.211693
vt 0.753771 0.007299
vt 0.758882 0.011652
vt 0.759838 0.089515
vt 0.678898 0.089515
vt 0.678898 0.013515
vt 0.686877 0.007299
vt 0.937653 0.380394
vt 0.941079 0.382754
vt 0.941079 0.458768
vt 0.890714 0.458770
vt 0.890714 0.379107
vt 0.744125 0.783349
vt 0.739079 0.787603
vt 0.668539 0.787419
vt 0.664325 0.783552
vt 0.663366 0.705805
vt 0.744125 0.706016
vt 0.671279 0.495500
vt 0.659881 0.504341
vt 0.660165 0.498859
vt 0.665283 0.494317
vt 0.735445 0.495500
vt 0.739668 0.499356
vt 0.740831 0.577100
vt 0.660071 0.577100
vt 0.825249 0.786686
vt 0.825249 0.705805
vt 0.876039 0.705805
vt 0.876039 0.786686
vt 0.257228 0.604545
vt 0.318373 0.604545
vt 0.322568 0.607684
vt 0.322568 0.688142
vt 0.241628 0.688142
vt 0.242487 0.617363
vt 0.245665 0.609403
vt 0.247646 0.606942
vt 0.960570 0.142224
vt 0.960570 0.214380
vt 0.909787 0.212623
vt 0.909787 0.151532
vt 0.912479 0.143448
vt 0.914495 0.142280
vt 0.839879 0.012754
vt 0.884448 0.012724
vt 0.890230 0.019102
vt 0.890230 0.083354
vt 0.845059 0.083385
vt 0.839879 0.077956
vt 0.713633 0.883082
vt 0.663366 0.883082
vt 0.663366 0.802201
vt 0.713633 0.802201
vt 0.843044 0.087248
vt 0.839409 0.087192
vt 0.824705 0.007299
vt 0.824800 0.011373
vt 0.777872 0.012695
vt 0.779533 0.008594
vt 0.894432 0.494317
vt 0.944797 0.494323
vt 0.944797 0.568879
vt 0.940278 0.573486
vt 0.894432 0.572196
vt 0.169223 0.783817
vt 0.103963 0.783817
vt 0.094589 0.776669
vt 0.094589 0.701601
vt 0.175529 0.701601
vt 0.174573 0.779464
vt 0.824800 0.090995
vt 0.774446 0.091033
vt 0.774446 0.015989
vt 0.885427 0.007299
vt 0.839593 0.007330
vt 0.914337 0.136833
vt 0.960411 0.136778
vt 0.909630 0.141915
vt 0.876118 0.604441
vt 0.876118 0.685646
vt 0.829947 0.685641
vt 0.828389 0.682670
vt 0.825230 0.675229
vt 0.825229 0.604435
vt 0.825267 0.683196
vt 0.744836 0.344899
vt 0.665530 0.347017
vt 0.665530 0.266317
vt 0.742672 0.265166
vt 0.747190 0.267467
vt 0.747190 0.339473
vt 0.909468 0.139892
vt 0.912586 0.136773
vt 0.810532 0.379165
vt 0.810585 0.383864
vt 0.759709 0.382379
vt 0.759610 0.379107
vt 0.810525 0.462811
vt 0.759647 0.462812
vt 0.676031 0.690125
vt 0.669261 0.691207
vt 0.664011 0.686586
vt 0.664264 0.681108
vt 0.663366 0.608327
vt 0.744116 0.609532
vt 0.744116 0.687285
vt 0.740190 0.691083
vt 0.475225 0.104708
vt 0.475225 0.008702
vt 0.477521 0.011102
vt 0.477521 0.102160
vt 0.569199 0.103305
vt 0.566651 0.100830
vt 0.569199 0.007299
vt 0.566651 0.009772
vt 0.394215 0.888522
vt 0.394215 0.984744
vt 0.389169 0.984744
vt 0.389169 0.888522
vt 0.616149 0.888265
vt 0.616149 0.979527
vt 0.610160 0.977820
vt 0.610160 0.889966
vt 0.100433 0.893487
vt 0.100433 0.984734
vt 0.094589 0.983068
vt 0.094589 0.895228
vt 0.185667 0.891958
vt 0.185667 0.983174
vt 0.179740 0.981530
vt 0.179740 0.893719
vt 0.185463 0.584566
vt 0.185463 0.496711
vt 0.188446 0.493735
vt 0.188446 0.587542
vt 0.097561 0.496711
vt 0.094589 0.493736
vt 0.097561 0.584566
vt 0.094589 0.587542
vt 0.595551 0.888265
vt 0.595551 0.982072
vt 0.588993 0.982072
vt 0.588993 0.888265
vt 0.553209 0.494317
vt 0.553209 0.587914
vt 0.548435 0.584744
vt 0.548435 0.499537
vt 0.574385 0.888284
vt 0.574385 0.982075
vt 0.567825 0.981944
vt 0.567818 0.888265
vt 0.227020 0.492879
vt 0.227018 0.586685
vt 0.220447 0.586685
vt 0.220436 0.493019
vt 0.981760 0.136773
vt 0.981760 0.230532
vt 0.975178 0.230509
vt 0.975191 0.136778
vt 0.979239 0.898321
vt 0.954473 0.898340
vt 0.954473 0.801302
vt 0.979239 0.801284
vt 0.526499 0.799747
vt 0.551271 0.799746
vt 0.551271 0.896833
vt 0.526499 0.896833
vt 0.193576 0.602169
vt 0.218296 0.602140
vt 0.218296 0.695659
vt 0.193576 0.695689
vt 0.351626 0.478027
vt 0.445229 0.478027
vt 0.447015 0.479879
vt 0.349840 0.479879
vt 0.440978 0.887040
vt 0.416255 0.887040
vt 0.416255 0.793505
vt 0.440978 0.793505
vt 0.444410 0.796845
vt 0.444410 0.883699
vt 0.244971 0.496282
vt 0.244971 0.586671
vt 0.241628 0.589947
vt 0.241628 0.492879
vt 0.331889 0.586671
vt 0.331889 0.496282
vt 0.335232 0.492879
vt 0.335232 0.589947
vt 0.190137 0.692293
vt 0.190137 0.605452
vt 0.446429 0.494477
vt 0.446429 0.591581
vt 0.442244 0.591581
vt 0.442244 0.494477
vt 0.445229 0.380959
vt 0.351626 0.380959
vt 0.349840 0.379108
vt 0.447015 0.379107
vt 0.474965 0.136773
vt 0.571912 0.138220
vt 0.569531 0.140601
vt 0.477346 0.139225
vt 0.281745 0.991174
vt 0.281745 0.894085
vt 0.285930 0.894080
vt 0.285930 0.991168
vt 0.204468 0.891958
vt 0.204468 0.992698
vt 0.200275 0.992701
vt 0.200275 0.891961
vt 0.992696 0.007299
vt 0.992696 0.108090
vt 0.988502 0.108090
vt 0.988502 0.007299
vt 0.959405 0.565814
vt 0.959405 0.473480
vt 0.979935 0.465808
vt 0.979935 0.573486
vt 0.571912 0.236596
vt 0.474965 0.235149
vt 0.477346 0.232768
vt 0.569531 0.234144
vt 0.459107 0.008865
vt 0.351350 0.008865
vt 0.349840 0.007299
vt 0.460617 0.007299
vt 0.958615 0.365034
vt 0.958615 0.272716
vt 0.979160 0.265166
vt 0.979160 0.372826
vt 0.307339 0.902978
vt 0.307339 0.807187
vt 0.327582 0.799456
vt 0.327582 0.911166
vt 0.955700 0.708252
vt 0.955700 0.612413
vt 0.975670 0.604435
vt 0.975670 0.716201
vt 0.732335 0.802201
vt 0.732335 0.912896
vt 0.728242 0.912896
vt 0.728242 0.802201
vt 0.351350 0.120610
vt 0.459107 0.120610
vt 0.460617 0.122175
vt 0.349840 0.122176
vt 0.460357 0.138423
vt 0.460357 0.250568
vt 0.349840 0.248918
vt 0.349840 0.136773
vt 0.969801 0.117981
vt 0.969801 0.007304
vt 0.973894 0.007299
vt 0.973894 0.117976
vt 0.638363 0.793035
vt 0.638363 0.907876
vt 0.634262 0.907879
vt 0.634262 0.793038
vt 0.077760 0.791580
vt 0.077760 0.906478
vt 0.073659 0.906479
vt 0.073659 0.791580
vn -1.000000 0.000000 0.000000
vn -0.069600 0.000000 0.997600
vn 0.000000 0.069600 0.997600
vn 0.069600 0.000000 0.997600
vn 0.000000 0.000000 -1.000000
vn 0.569500 0.000000 -0.822000
vn 1.000000 0.000000 0.000000
vn 0.000000 1.000000 0.000000
vn 0.000000 -1.000000 0.000000
vn 0.064600 0.000000 -0.997900
vn 0.000000 0.569500 -0.822000
vn -0.569500 0.000000 -0.822000
vn 0.000000 -0.569500 -0.822000
vn 0.000000 0.064600 -0.997900
vn -0.064600 0.000000 -0.997900
vn 0.000000 -0.064600 -0.997900
vn -0.000200 0.023200 0.999700
vn -0.170200 0.151700 0.973700
vn -0.017800 -0.079300 0.996700
vn 0.067700 -0.001400 0.997700
vn -0.216100 0.002800 0.976400
vn -0.003200 0.201600 0.979500
vn 0.000000 -0.069600 0.997600
vn -0.002800 0.990500 0.137100
vn 0.000000 0.000000 1.000000
vn -0.000700 0.970900 -0.239400
vn -0.092000 0.131400 -0.987100
vn -0.675700 0.715500 -0.177400
vn 0.999900 0.012200 -0.001400
vn 0.305200 0.209700 0.928900
vn 0.896400 -0.003100 0.443200
vn -0.068400 0.046100 0.996600
vn -0.078200 0.094900 0.992400
vn -0.047700 0.111500 0.992600
vn -0.264900 0.368700 0.891000
vn 0.334100 0.398200 -0.854300
vn 0.726400 0.683800 -0.068800
vn -0.047300 0.109200 -0.992900
vn 0.449700 0.611400 0.651100
vn 0.015000 0.999900 -0.000000
vn 0.558200 0.829700 0.000000
vn 0.433300 0.562900 -0.703900
vn -0.456900 0.709000 0.537200
vn -0.534600 0.845100 -0.000100
vn -0.420900 0.624200 -0.658200
vn 0.639100 0.745100 -0.190800
vn -0.463400 0.880500 -0.100000
vn 0.002300 0.968200 -0.250100
vn 0.422800 0.906200 0.000000
vn 0.036800 0.147100 -0.988400
vn 0.999900 0.011600 -0.003900
vn 0.269900 0.048100 -0.961700
vn 0.136700 0.176700 -0.974700
vn -0.669700 0.738400 0.078900
vn -0.005600 0.005600 1.000000
vn -0.709800 0.569700 0.414300
vn -0.984200 -0.000400 0.177000
vn 0.007100 0.007100 0.999900
vn 0.862700 0.426800 0.271100
vn 0.000000 -0.364200 0.931300
vn 0.014900 0.999900 0.000100
vn 0.999700 0.025100 0.000000
vn 0.452400 0.525400 -0.720600
vn 0.574700 0.635800 0.515200
vn -0.065600 0.091100 0.993700
vn -0.066600 0.090200 -0.993700
vn -0.534700 0.845100 0.000000
vn 0.999700 0.025000 0.000000
vn -0.112900 0.135900 -0.984300
vn -0.678200 0.714000 -0.173900
vn 0.638600 0.747500 -0.182500
vn 0.000200 0.971100 -0.238500
vn 0.091200 0.123600 0.988100
vn 0.000700 0.970900 -0.239400
vn 0.093500 0.129100 -0.987200
vn 0.697100 0.695900 -0.172500
vn -0.999900 0.012200 -0.001400
vn -0.621700 0.758700 -0.194300
vn -0.407300 0.913300 0.000000
vn -0.036800 0.147100 -0.988400
vn -0.999900 0.011600 -0.003900
vn -0.120600 0.048100 -0.991500
vn -0.113900 0.137400 -0.983900
vn 0.763100 0.645200 -0.037800
vn -0.090000 0.125300 0.988000
vn 0.000000 -0.026100 0.999700
vn -0.026100 0.000000 0.999700
vn 0.000000 0.026100 0.999700
vn 0.026100 0.000000 0.999700
vn -0.364200 0.000000 0.931300
vn 0.000000 0.364200 0.931300
vn 0.364200 0.000000 0.931300
vn 0.000000 0.009700 -1.000000
vn -0.009700 0.000000 -1.000000
vn 0.009700 0.000000 -1.000000
vn 0.000000 -0.009700 -1.000000
vn 0.000000 -0.020400 0.999800
vn -0.020600 -0.000000 0.999800
vn 0.030100 -0.000000 0.999500
vn -0.000600 0.993600 0.113200
vn -0.995400 0.000800 0.096300
vn 0.999800 -0.000100 -0.018700
vn 0.000000 -0.107200 -0.994200
vn -0.107200 0.000000 -0.994200
vn 0.107200 -0.000000 -0.994200
vn 0.000000 0.107200 -0.994200
vn 0.000000 -0.270700 -0.962700
vn 0.000000 0.270700 -0.962700
vn 0.280200 -0.000000 -0.959900
vn -0.280200 0.000000 -0.959900
usemtl Material.016
s off
f 27/1/1 29/2/1 3/3/1 2/4/1
f 30/5/2 26/6/2 7/7/2 8/8/2
f 32/9/3 30/5/3 8/8/3 9/10/3
f 5/11/4 33/12/4 32/9/4 9/10/4 6/13/4
f 1/14/5 2/15/5 3/16/5 4/17/5
f 6/18/6 9/19/6 13/20/6 10/21/6
f 31/22/7 33/23/7 5/24/7 1/25/7 4/26/7
f 29/27/8 31/28/8 4/29/8 3/30/8
f 5/31/9 28/32/9 27/33/9 2/34/9 1/35/9
f 10/36/10 13/37/10 17/38/10 14/39/10
f 9/40/11 8/41/11 12/42/11 13/43/11
f 8/44/12 7/45/12 11/46/12 12/47/12
f 7/48/13 6/49/13 10/50/13 11/51/13
f 13/37/14 12/52/14 16/53/14 17/38/14
f 12/52/15 11/54/15 15/55/15 16/53/15
f 11/54/16 10/36/16 14/39/16 15/55/16
f 207/56/17 205/57/17 122/58/17 121/59/17 125/60/17 127/61/17
f 14/62/7 17/63/7 206/64/7 202/65/7
f 16/66/1 15/67/1 203/68/1 204/69/1
f 58/70/18 123/71/18 124/72/18 59/73/18
f 23/74/9 22/75/9 24/76/9 25/77/9
f 26/6/19 27/78/19 28/79/19
f 31/80/20 32/9/20 33/12/20
f 26/81/21 30/82/21 29/2/21 27/1/21
f 30/83/22 32/84/22 31/28/22 29/27/22
f 26/6/23 28/79/23 5/11/23 6/13/23 7/7/23
f 125/85/24 121/86/24 123/87/24 58/88/24 56/89/24 129/90/24
f 34/91/5 35/92/5 36/93/5 37/94/5
f 38/95/25 41/96/25 40/97/25 39/98/25
f 34/99/7 37/100/7 41/101/7 38/102/7
f 37/103/8 36/104/8 40/105/8 41/106/8
f 36/107/1 35/108/1 39/109/1 40/110/1
f 35/111/9 34/112/9 38/113/9 39/114/9
f 43/115/9 44/116/9 45/117/9 42/118/9
f 111/119/5 110/120/5 113/121/5 115/122/5 45/123/5 44/124/5 116/125/5 117/126/5
f 107/127/8 108/128/8 112/129/8 111/130/8 117/131/8 118/132/8
f 54/133/26 50/134/26 52/135/26 100/136/26 168/137/26 169/138/26
f 47/139/9 46/140/9 48/141/9 49/142/9
f 53/143/27 52/135/27 50/134/27 51/144/27
f 100/136/28 52/135/28 53/143/28 101/145/28
f 46/146/29 55/147/29 166/148/29 167/149/29 48/150/29
f 54/151/5 55/152/5 46/153/5 47/154/5 51/155/5 50/156/5
f 56/157/30 57/158/30 128/159/30 129/160/30
f 22/161/31 126/162/31 128/159/31 57/158/31 24/163/31
f 17/164/8 16/165/8 204/166/8 206/167/8
f 57/168/25 56/169/25 58/170/25 59/171/25 25/172/25 24/173/25
f 74/174/7 76/175/7 66/176/7 62/177/7
f 75/178/9 74/179/9 62/180/9 63/181/9
f 70/182/32 71/183/32 72/184/32
f 69/185/33 73/186/33 71/183/33 70/182/33
f 68/187/34 73/186/34 69/185/34
f 104/188/1 78/189/1 61/190/1 75/191/1 63/192/1 72/193/1 71/194/1 103/195/1
f 71/196/35 73/197/35 102/198/35 103/199/35
f 76/200/36 65/201/36 64/202/36 77/203/36
f 66/176/37 76/175/37 77/204/37 67/205/37
f 61/206/9 60/207/9 74/179/9 75/178/9
f 60/208/7 65/209/7 76/175/7 74/174/7
f 78/210/38 104/211/38 105/212/38 79/213/38
f 61/214/5 78/215/5 79/216/5 64/217/5 65/218/5 60/219/5
f 62/220/25 66/221/25 67/222/25 68/187/25 69/185/25 70/182/25 72/184/25 63/223/25
f 90/224/39 88/225/39 89/226/39 91/227/39
f 84/228/40 93/229/40 96/230/40 99/231/40 94/232/40 87/233/40 91/227/40 89/226/40
f 88/225/41 85/234/41 84/228/41 89/226/41
f 86/235/25 87/236/25 94/237/25 95/238/25 83/239/25 82/240/25
f 84/241/5 85/242/5 80/243/5 81/244/5 92/245/5 93/246/5
f 86/247/42 90/224/42 91/227/42 87/233/42
f 92/248/43 97/249/43 96/230/43 93/229/43
f 98/250/44 95/251/44 94/232/44 99/231/44
f 97/249/45 98/250/45 99/231/45 96/230/45
f 53/252/1 51/253/1 47/254/1 49/255/1 101/256/1
f 166/257/46 55/258/46 54/133/46 169/138/46
f 102/198/47 105/212/47 104/211/47 103/199/47
f 64/202/48 79/213/48 105/212/48 102/198/48 73/197/48 68/259/48 67/260/48 77/203/48
f 108/128/49 107/127/49 106/261/49 109/262/49
f 110/263/50 111/130/50 112/129/50
f 42/264/51 45/265/51 115/266/51 114/267/51 109/268/51 106/269/51
f 113/270/52 114/267/52 115/266/52
f 106/271/25 107/272/25 118/273/25 119/274/25 43/275/25 42/276/25
f 109/262/53 114/277/53 113/278/53 110/263/53 112/129/53 108/128/53
f 118/132/54 117/131/54 116/279/54 119/280/54
f 119/281/1 116/282/1 44/283/1 43/284/1
f 120/285/55 121/59/55 122/58/55
f 123/71/56 121/286/56 120/287/56 124/72/56
f 120/287/57 23/288/57 25/289/57 59/73/57 124/72/57
f 125/60/58 126/290/58 127/61/58
f 125/291/59 129/160/59 128/159/59 126/162/59
f 20/292/60 21/293/60 211/294/60 210/295/60
f 133/296/61 148/297/61 149/298/61 144/299/61 145/300/61 137/301/61 143/302/61 140/303/61
f 150/304/1 151/305/1 131/306/1 135/307/1 146/308/1 147/309/1
f 132/310/5 130/311/5 131/312/5 151/313/5 148/314/5 133/315/5
f 130/316/62 132/317/62 141/318/62 142/319/62 136/320/62 134/321/62
f 142/322/63 143/302/63 137/301/63 136/323/63
f 131/324/9 130/325/9 134/326/9 135/327/9
f 132/328/41 133/296/41 140/303/41 141/329/41
f 141/329/64 140/303/64 143/302/64 142/322/64
f 146/330/65 145/331/65 144/332/65 147/333/65
f 136/334/25 137/335/25 145/331/25 146/330/25 135/336/25 134/337/25
f 150/338/66 149/339/66 148/314/66 151/313/66
f 149/298/67 150/340/67 147/341/67 144/299/67
f 90/342/68 86/343/68 82/344/68 80/345/68 85/346/68 88/347/68
f 81/348/9 80/349/9 82/350/9 83/351/9
f 83/352/1 95/353/1 98/354/1 97/355/1 92/356/1 81/357/1
f 152/358/29 161/359/29 162/360/29 154/361/29
f 153/362/9 152/363/9 154/364/9 155/365/9
f 159/366/69 158/367/69 156/368/69 157/369/69
f 164/370/70 158/367/70 159/366/70 165/371/70
f 162/372/71 161/373/71 160/374/71 163/375/71
f 160/376/5 161/377/5 152/378/5 153/379/5 157/380/5 156/381/5
f 159/382/1 157/383/1 153/384/1 155/385/1 165/386/1
f 162/387/25 163/388/25 164/389/25 165/390/25 155/391/25 154/392/25
f 160/374/72 156/368/72 158/367/72 164/370/72 163/375/72
f 168/393/73 167/394/73 166/395/73 169/396/73
f 167/394/25 168/393/25 100/397/25 101/398/25 49/399/25 48/400/25
f 138/401/9 139/402/9 171/403/9 170/404/9
f 189/405/5 195/406/5 194/407/5 170/408/5 171/409/5 193/410/5 191/411/5 188/412/5
f 185/413/8 196/414/8 195/415/8 189/416/8 190/417/8 186/418/8
f 180/419/74 201/420/74 200/421/74 182/422/74 178/423/74 176/424/74
f 173/425/9 175/426/9 174/427/9 172/428/9
f 179/429/75 177/430/75 176/424/75 178/423/75
f 182/431/76 183/432/76 179/433/76 178/434/76
f 172/435/77 174/436/77 199/437/77 198/438/77 181/439/77
f 180/440/5 176/441/5 177/442/5 173/443/5 172/444/5 181/445/5
f 179/433/7 183/432/7 175/446/7 173/447/7 177/448/7
f 198/449/78 201/420/78 180/419/78 181/450/78
f 186/418/79 187/451/79 184/452/79 185/413/79
f 188/453/80 190/417/80 189/416/80
f 139/454/81 184/455/81 187/456/81 192/457/81 193/458/81 171/459/81
f 191/460/82 193/458/82 192/457/82
f 184/461/25 139/462/25 138/463/25 197/464/25 196/465/25 185/466/25
f 187/451/83 186/418/83 190/417/83 188/453/83 191/467/83 192/468/83
f 196/469/84 197/470/84 194/471/84 195/472/84
f 197/470/7 138/473/7 170/474/7 194/471/7
f 200/475/85 201/476/85 198/477/85 199/478/85
f 199/478/25 174/479/25 175/480/25 183/481/25 182/482/25 200/475/25
f 203/483/86 202/484/86 21/485/86 20/486/86
f 204/487/87 203/483/87 20/486/87 19/488/87
f 206/489/88 204/487/88 19/488/88 18/490/88
f 202/484/89 206/489/89 18/490/89 21/485/89
f 15/491/9 14/492/9 202/493/9 203/494/9
f 19/495/90 20/496/90 210/497/90 209/498/90
f 18/499/91 19/500/91 209/501/91 208/502/91
f 21/503/92 18/504/92 208/505/92 211/506/92
f 208/507/93 209/508/93 213/509/93 212/510/93
f 209/508/94 210/511/94 214/512/94 213/509/94
f 211/513/95 208/507/95 212/510/95 215/514/95
f 210/511/96 211/513/96 215/514/96 214/512/96
f 214/515/9 215/516/9 217/517/9 216/518/9
f 216/519/97 217/520/97 22/521/97 23/522/97
f 205/57/98 216/519/98 23/522/98 120/285/98 122/58/98
f 217/520/99 207/56/99 127/61/99 126/290/99 22/521/99
f 212/523/100 213/524/100 205/525/100 207/526/100
f 213/527/101 214/528/101 216/529/101 205/530/101
f 215/531/102 212/532/102 207/533/102 217/534/102
f 228/535/7 219/536/7 218/537/7 222/538/7
f 224/539/1 220/540/1 221/541/1 226/542/1
f 226/543/8 221/544/8 219/545/8 228/546/8
f 220/547/5 218/548/5 230/549/5 232/550/5
f 222/551/9 218/552/9 220/553/9 224/554/9
f 225/555/103 223/556/103 222/551/103 224/554/103
f 227/557/104 225/558/104 224/559/104 226/560/104
f 223/561/105 229/562/105 228/563/105 222/564/105
f 229/565/106 227/566/106 226/543/106 228/546/106
f 227/557/5 229/562/5 223/561/5 225/558/5
f 232/567/9 230/568/9 234/569/9 236/570/9
f 219/571/5 221/572/5 233/573/5 231/574/5
f 218/548/5 219/571/5 231/574/5 230/549/5
f 221/572/5 220/547/5 232/550/5 233/573/5
f 236/575/25 234/576/25 238/577/25 240/578/25
f 231/579/8 233/580/8 237/581/8 235/582/8
f 230/583/7 231/584/7 235/585/7 234/586/7
f 233/587/1 232/588/1 236/589/1 237/590/1
f 240/591/107 238/592/107 242/593/107 244/594/107
f 235/595/25 237/596/25 241/597/25 239/598/25
f 234/576/25 235/595/25 239/598/25 238/577/25
f 237/596/25 236/575/25 240/578/25 241/597/25
f 244/599/5 242/600/5 246/601/5 248/602/5
f 239/603/108 241/604/108 245/605/108 243/606/108
f 238/607/109 239/608/109 243/609/109 242/610/109
f 241/611/110 240/612/110 244/613/110 245/614/110
f 248/615/9 246/616/9 250/617/9 252/618/9
f 243/619/5 245/620/5 249/621/5 247/622/5
f 242/600/5 243/619/5 247/622/5 246/601/5
f 245/620/5 244/599/5 248/602/5 249/621/5
f 253/623/25 252/624/25 250/625/25 251/626/25
f 247/627/8 249/628/8 253/629/8 251/630/8
f 246/631/7 247/632/7 251/633/7 250/634/7
f 249/635/1 248/636/1 252/637/1 253/638/1
