# Blender v2.74 (sub 0) OBJ File: 'building05.blend'
# www.blender.org
mtllib simpleWindow.mtl
o Plane.015
v 0.500000 -0.000000 1.000000
v 0.500000 0.000000 0.000000
v -0.500000 -0.000000 1.000000
v -0.500000 0.000000 0.000000
v 0.500000 -0.000000 0.930723
v -0.500000 -0.000000 0.930723
v -0.500000 0.050369 1.000000
v 0.500000 0.050369 1.000000
v -0.500000 0.050369 0.930723
v 0.500000 0.050369 0.930723
v 0.500000 0.000000 0.258534
v -0.500000 0.000000 0.258534
v 0.500000 -0.000000 0.930723
v -0.500000 -0.000000 0.930723
v 0.500000 0.000000 0.258534
v -0.500000 0.000000 0.258534
v -0.500000 0.000000 0.357262
v 0.500000 0.000000 0.357262
v -0.500000 -0.000000 0.847347
v 0.500000 -0.000000 0.847347
v 0.290630 -0.000000 0.930723
v 0.290630 0.000000 0.258534
v 0.290630 0.000000 0.357262
v 0.290630 -0.000000 0.847347
v -0.254285 -0.000000 0.930723
v -0.254285 0.000000 0.258534
v -0.254285 0.000000 0.357262
v -0.254285 -0.000000 0.847347
v 0.290630 -0.112622 0.357262
v 0.290630 -0.112622 0.847347
v -0.254285 -0.112622 0.357262
v -0.254285 -0.112622 0.847347
v 0.290630 0.065464 0.258534
v 0.290630 0.065464 0.357262
v -0.254285 0.065464 0.258534
v -0.254285 0.065464 0.357262
v 0.317628 -0.040068 0.679696
v -0.281283 -0.040068 0.679696
v 0.317628 -0.133713 0.679696
v -0.281283 -0.133713 0.679696
v 0.317628 -0.040068 0.701366
v -0.281283 -0.040068 0.701366
v 0.317628 -0.133713 0.701366
v -0.281283 -0.133713 0.701366
v 0.317628 -0.030475 0.829041
v -0.281283 -0.030475 0.829041
v 0.317628 -0.133713 0.829041
v -0.281283 -0.133713 0.829041
v 0.317628 -0.030475 0.864464
v -0.281283 -0.030475 0.864464
v 0.317628 -0.133713 0.864464
v -0.281283 -0.133713 0.864464
v 0.317628 -0.030475 0.340666
v -0.281283 -0.030475 0.340666
v 0.317628 -0.133713 0.340666
v -0.281283 -0.133713 0.340666
v 0.317628 -0.030475 0.376089
v -0.281283 -0.030475 0.376089
v 0.317628 -0.133713 0.376089
v -0.281283 -0.133713 0.376089
v 0.270748 -0.030475 0.330692
v 0.270748 -0.030475 0.880266
v 0.270748 -0.133713 0.330692
v 0.270748 -0.133713 0.880266
v 0.325655 -0.030475 0.330692
v 0.325655 -0.030475 0.880266
v 0.325655 -0.133713 0.330692
v 0.325655 -0.133713 0.880266
v -0.291116 -0.030475 0.330692
v -0.291116 -0.030475 0.880266
v -0.291116 -0.133713 0.330692
v -0.291116 -0.133713 0.880266
v -0.236209 -0.030475 0.330692
v -0.236209 -0.030475 0.880266
v -0.236209 -0.133713 0.330692
v -0.236209 -0.133713 0.880266
v -0.001199 -0.052875 0.309677
v -0.001199 -0.052875 0.883728
v -0.001199 -0.133713 0.309677
v -0.001199 -0.133713 0.883728
v 0.037544 -0.052875 0.309677
v 0.037544 -0.052875 0.883728
v 0.037544 -0.133713 0.309677
v 0.037544 -0.133713 0.883728
vt 0.000000 0.258534
vt 0.000000 0.000000
vt 1.000000 0.000000
vt 1.000000 0.258534
vt 0.000000 0.930723
vt 1.000000 0.930723
vt 0.000000 1.000000
vt 1.000000 1.000000
vt 0.754285 0.357262
vt 0.754285 0.258534
vt 1.000000 0.357262
vt 0.754285 0.847347
vt 1.000000 0.847347
vt 0.754285 0.930723
vt 0.000000 0.847347
vt 0.209370 0.847347
vt 0.209370 0.930723
vt 0.000000 0.357262
vt 0.209370 0.357262
vt 0.209370 0.258534
vn 0.000000 1.000000 0.000000
vn 0.000000 0.000000 -1.000000
vn 0.000000 0.000000 1.000000
vn 1.000000 0.000000 0.000000
vn -1.000000 0.000000 0.000000
vn 0.000000 -1.000000 0.000000
usemtl Material.014
s off
f 11/1/1 2/2/1 4/3/1 12/4/1
f 5/5/2 6/6/2 9/6/2 10/5/2
f 8/7/1 10/5/1 9/6/1 7/8/1
f 3/8/3 1/7/3 8/7/3 7/8/3
f 27/9/1 26/10/1 16/4/1 17/11/1
f 28/12/1 27/9/1 17/11/1 19/13/1
f 25/14/1 28/12/1 19/13/1 14/6/1
f 13/5/1 20/15/1 24/16/1 21/17/1
f 20/15/1 18/18/1 23/19/1 24/16/1
f 18/18/1 15/1/1 22/20/1 23/19/1
f 21/17/1 24/16/1 28/12/1 25/14/1
f 27/9/4 28/12/4 32/12/4 31/9/4
f 26/10/5 27/9/5 36/9/5 35/10/5
f 30/16/1 29/19/1 31/9/1 32/12/1
f 28/12/2 24/16/2 30/16/2 32/12/2
f 23/19/3 27/9/3 31/9/3 29/19/3
f 24/16/5 23/19/5 29/19/5 30/16/5
f 34/19/1 33/20/1 35/10/1 36/9/1
f 27/9/3 23/19/3 34/19/3 36/9/3
f 22/20/2 26/10/2 35/10/2 33/20/2
f 23/19/4 22/20/4 33/20/4 34/19/4
f 37/2/2 39/2/2 40/2/2 38/2/2
f 41/2/3 42/2/3 44/2/3 43/2/3
f 38/2/5 40/2/5 44/2/5 42/2/5
f 39/2/4 37/2/4 41/2/4 43/2/4
f 40/2/6 39/2/6 43/2/6 44/2/6
f 37/2/1 38/2/1 42/2/1 41/2/1
f 45/2/2 47/2/2 48/2/2 46/2/2
f 49/2/3 50/2/3 52/2/3 51/2/3
f 46/2/5 48/2/5 52/2/5 50/2/5
f 47/2/4 45/2/4 49/2/4 51/2/4
f 48/2/6 47/2/6 51/2/6 52/2/6
f 45/2/1 46/2/1 50/2/1 49/2/1
f 53/2/2 55/2/2 56/2/2 54/2/2
f 57/2/3 58/2/3 60/2/3 59/2/3
f 54/2/5 56/2/5 60/2/5 58/2/5
f 55/2/4 53/2/4 57/2/4 59/2/4
f 56/2/6 55/2/6 59/2/6 60/2/6
f 53/2/1 54/2/1 58/2/1 57/2/1
f 61/2/5 63/2/5 64/2/5 62/2/5
f 65/2/4 66/2/4 68/2/4 67/2/4
f 62/2/3 64/2/3 68/2/3 66/2/3
f 63/2/2 61/2/2 65/2/2 67/2/2
f 64/2/6 63/2/6 67/2/6 68/2/6
f 61/2/1 62/2/1 66/2/1 65/2/1
f 69/2/5 71/2/5 72/2/5 70/2/5
f 73/2/4 74/2/4 76/2/4 75/2/4
f 70/2/3 72/2/3 76/2/3 74/2/3
f 71/2/2 69/2/2 73/2/2 75/2/2
f 72/2/6 71/2/6 75/2/6 76/2/6
f 69/2/1 70/2/1 74/2/1 73/2/1
f 77/2/5 79/2/5 80/2/5 78/2/5
f 81/2/4 82/2/4 84/2/4 83/2/4
f 78/2/3 80/2/3 84/2/3 82/2/3
f 79/2/2 77/2/2 81/2/2 83/2/2
f 80/2/6 79/2/6 83/2/6 84/2/6
f 77/2/1 78/2/1 82/2/1 81/2/1
