<?xml version="1.0" encoding="UTF-8"?>
<osm version="0.6" generator="CGImap 0.4.0 (30265 thorn-02.openstreetmap.org)" copyright="OpenStreetMap and contributors" attribution="http://www.openstreetmap.org/copyright" license="http://opendatacommons.org/licenses/odbl/1-0/">
 <bounds minlat="48.6530500" minlon="2.2678900" maxlat="48.6541600" maxlon="2.2689600"/>
 <node id="255424963" visible="true" version="2" changeset="15482069" timestamp="2013-03-24T17:22:15Z" user="Marcussacapuces91" uid="37548" lat="48.6521135" lon="2.2681046"/>
 <node id="1731783022" visible="true" version="1" changeset="11423858" timestamp="2012-04-26T12:58:19Z" user="didier2020" uid="300459" lat="48.6531277" lon="2.2684869"/>
 <node id="1731783023" visible="true" version="1" changeset="11423858" timestamp="2012-04-26T12:58:20Z" user="didier2020" uid="300459" lat="48.6531288" lon="2.2685523"/>
 <node id="1731783030" visible="true" version="1" changeset="11423858" timestamp="2012-04-26T12:58:20Z" user="didier2020" uid="300459" lat="48.6531328" lon="2.2682913"/>
 <node id="1731783032" visible="true" version="1" changeset="11423858" timestamp="2012-04-26T12:58:20Z" user="didier2020" uid="300459" lat="48.6531336" lon="2.2681812"/>
 <node id="1731783059" visible="true" version="1" changeset="11423858" timestamp="2012-04-26T12:58:21Z" user="didier2020" uid="300459" lat="48.6531466" lon="2.2684537"/>
 <node id="1731783060" visible="true" version="1" changeset="11423858" timestamp="2012-04-26T12:58:21Z" user="didier2020" uid="300459" lat="48.6531466" lon="2.2684869"/>
 <node id="1731783082" visible="true" version="1" changeset="11423858" timestamp="2012-04-26T12:58:21Z" user="didier2020" uid="300459" lat="48.6531511" lon="2.2686922"/>
 <node id="1731783084" visible="true" version="1" changeset="11423858" timestamp="2012-04-26T12:58:22Z" user="didier2020" uid="300459" lat="48.6531522" lon="2.2688075"/>
 <node id="1731783142" visible="true" version="1" changeset="11423858" timestamp="2012-04-26T12:58:23Z" user="didier2020" uid="300459" lat="48.6531779" lon="2.2688237"/>
 <node id="1731783144" visible="true" version="1" changeset="11423858" timestamp="2012-04-26T12:58:23Z" user="didier2020" uid="300459" lat="48.6531783" lon="2.2688083"/>
 <node id="1731783173" visible="true" version="1" changeset="11423858" timestamp="2012-04-26T12:58:24Z" user="didier2020" uid="300459" lat="48.6531963" lon="2.2681805"/>
 <node id="1731783177" visible="true" version="1" changeset="11423858" timestamp="2012-04-26T12:58:24Z" user="didier2020" uid="300459" lat="48.6531967" lon="2.2681663"/>
 <node id="1731783185" visible="true" version="1" changeset="11423858" timestamp="2012-04-26T12:58:25Z" user="didier2020" uid="300459" lat="48.6532011" lon="2.2688079"/>
 <node id="1731783186" visible="true" version="1" changeset="11423858" timestamp="2012-04-26T12:58:25Z" user="didier2020" uid="300459" lat="48.6532017" lon="2.2688243"/>
 <node id="1731783194" visible="true" version="1" changeset="11423858" timestamp="2012-04-26T12:58:25Z" user="didier2020" uid="300459" lat="48.6532037" lon="2.2686921"/>
 <node id="1731783196" visible="true" version="1" changeset="11423858" timestamp="2012-04-26T12:58:25Z" user="didier2020" uid="300459" lat="48.6532048" lon="2.2687069"/>
 <node id="1731783209" visible="true" version="1" changeset="11423858" timestamp="2012-04-26T12:58:26Z" user="didier2020" uid="300459" lat="48.6532136" lon="2.2685528"/>
 <node id="1731783211" visible="true" version="1" changeset="11423858" timestamp="2012-04-26T12:58:26Z" user="didier2020" uid="300459" lat="48.6532146" lon="2.2684564"/>
 <node id="1731783216" visible="true" version="1" changeset="11423858" timestamp="2012-04-26T12:58:26Z" user="didier2020" uid="300459" lat="48.6532233" lon="2.2681670"/>
 <node id="1731783224" visible="true" version="1" changeset="11423858" timestamp="2012-04-26T12:58:26Z" user="didier2020" uid="300459" lat="48.6532235" lon="2.2682927"/>
 <node id="1731783226" visible="true" version="1" changeset="11423858" timestamp="2012-04-26T12:58:26Z" user="didier2020" uid="300459" lat="48.6532290" lon="2.2687061"/>
 <node id="1731783229" visible="true" version="1" changeset="11423858" timestamp="2012-04-26T12:58:26Z" user="didier2020" uid="300459" lat="48.6532298" lon="2.2688248"/>
 <node id="1731783268" visible="true" version="1" changeset="11423858" timestamp="2012-04-26T12:58:28Z" user="didier2020" uid="300459" lat="48.6532629" lon="2.2686627"/>
 <node id="1731783270" visible="true" version="1" changeset="11423858" timestamp="2012-04-26T12:58:28Z" user="didier2020" uid="300459" lat="48.6532631" lon="2.2681483"/>
 <node id="1731783273" visible="true" version="1" changeset="11423858" timestamp="2012-04-26T12:58:28Z" user="didier2020" uid="300459" lat="48.6532634" lon="2.2682928"/>
 <node id="1731783277" visible="true" version="1" changeset="11423858" timestamp="2012-04-26T12:58:28Z" user="didier2020" uid="300459" lat="48.6532640" lon="2.2688114"/>
 <node id="1731783328" visible="true" version="1" changeset="11423858" timestamp="2012-04-26T12:58:30Z" user="didier2020" uid="300459" lat="48.6532916" lon="2.2688120"/>
 <node id="1731783329" visible="true" version="1" changeset="11423858" timestamp="2012-04-26T12:58:30Z" user="didier2020" uid="300459" lat="48.6532918" lon="2.2681481"/>
 <node id="1731783331" visible="true" version="1" changeset="11423858" timestamp="2012-04-26T12:58:30Z" user="didier2020" uid="300459" lat="48.6532919" lon="2.2681698"/>
 <node id="1731783333" visible="true" version="1" changeset="11423858" timestamp="2012-04-26T12:58:30Z" user="didier2020" uid="300459" lat="48.6532926" lon="2.2687873"/>
 <node id="1731783382" visible="true" version="1" changeset="11423858" timestamp="2012-04-26T12:58:31Z" user="didier2020" uid="300459" lat="48.6533378" lon="2.2681696"/>
 <node id="1731783383" visible="true" version="1" changeset="11423858" timestamp="2012-04-26T12:58:31Z" user="didier2020" uid="300459" lat="48.6533380" lon="2.2682924"/>
 <node id="1731783391" visible="true" version="1" changeset="11423858" timestamp="2012-04-26T12:58:32Z" user="didier2020" uid="300459" lat="48.6533394" lon="2.2686632"/>
 <node id="1731783393" visible="true" version="1" changeset="11423858" timestamp="2012-04-26T12:58:32Z" user="didier2020" uid="300459" lat="48.6533398" lon="2.2687868"/>
 <node id="1731783433" visible="true" version="1" changeset="11423858" timestamp="2012-04-26T12:58:33Z" user="didier2020" uid="300459" lat="48.6533618" lon="2.2686413"/>
 <node id="1731783435" visible="true" version="1" changeset="11423858" timestamp="2012-04-26T12:58:33Z" user="didier2020" uid="300459" lat="48.6533629" lon="2.2687514"/>
 <node id="1731783437" visible="true" version="1" changeset="11423858" timestamp="2012-04-26T12:58:33Z" user="didier2020" uid="300459" lat="48.6533633" lon="2.2682823"/>
 <node id="1731783442" visible="true" version="1" changeset="11423858" timestamp="2012-04-26T12:58:33Z" user="didier2020" uid="300459" lat="48.6533637" lon="2.2681425"/>
 <node id="1731783479" visible="true" version="1" changeset="11423858" timestamp="2012-04-26T12:58:35Z" user="didier2020" uid="300459" lat="48.6533873" lon="2.2687786"/>
 <node id="1731783484" visible="true" version="1" changeset="11423858" timestamp="2012-04-26T12:58:35Z" user="didier2020" uid="300459" lat="48.6533905" lon="2.2681672"/>
 <node id="1731783485" visible="true" version="1" changeset="11423858" timestamp="2012-04-26T12:58:35Z" user="didier2020" uid="300459" lat="48.6533906" lon="2.2681428"/>
 <node id="1731783494" visible="true" version="1" changeset="11423858" timestamp="2012-04-26T12:58:35Z" user="didier2020" uid="300459" lat="48.6534002" lon="2.2687514"/>
 <node id="1731783497" visible="true" version="1" changeset="11423858" timestamp="2012-04-26T12:58:35Z" user="didier2020" uid="300459" lat="48.6534013" lon="2.2687785"/>
 <node id="1731783505" visible="true" version="1" changeset="11423858" timestamp="2012-04-26T12:58:35Z" user="didier2020" uid="300459" lat="48.6534041" lon="2.2681427"/>
 <node id="1731783528" visible="true" version="1" changeset="11423858" timestamp="2012-04-26T12:58:36Z" user="didier2020" uid="300459" lat="48.6534273" lon="2.2686405"/>
 <node id="1731783530" visible="true" version="1" changeset="11423858" timestamp="2012-04-26T12:58:36Z" user="didier2020" uid="300459" lat="48.6534287" lon="2.2687785"/>
 <node id="1731783533" visible="true" version="1" changeset="11423858" timestamp="2012-04-26T12:58:36Z" user="didier2020" uid="300459" lat="48.6534294" lon="2.2682827"/>
 <node id="1731783537" visible="true" version="1" changeset="11423858" timestamp="2012-04-26T12:58:36Z" user="didier2020" uid="300459" lat="48.6534297" lon="2.2681673"/>
 <node id="1731783573" visible="true" version="1" changeset="11423858" timestamp="2012-04-26T12:58:37Z" user="didier2020" uid="300459" lat="48.6534499" lon="2.2687785"/>
 <node id="1731783575" visible="true" version="1" changeset="11423858" timestamp="2012-04-26T12:58:37Z" user="didier2020" uid="300459" lat="48.6534502" lon="2.2686415"/>
 <node id="1731783579" visible="true" version="1" changeset="11423858" timestamp="2012-04-26T12:58:38Z" user="didier2020" uid="300459" lat="48.6534547" lon="2.2681371"/>
 <node id="1731783582" visible="true" version="1" changeset="11423858" timestamp="2012-04-26T12:58:38Z" user="didier2020" uid="300459" lat="48.6534548" lon="2.2682853"/>
 <node id="1731783623" visible="true" version="1" changeset="11423858" timestamp="2012-04-26T12:58:39Z" user="didier2020" uid="300459" lat="48.6534712" lon="2.2687531"/>
 <node id="1731783626" visible="true" version="1" changeset="11423858" timestamp="2012-04-26T12:58:39Z" user="didier2020" uid="300459" lat="48.6534714" lon="2.2687792"/>
 <node id="1731783666" visible="true" version="1" changeset="11423858" timestamp="2012-04-26T12:58:40Z" user="didier2020" uid="300459" lat="48.6534832" lon="2.2681639"/>
 <node id="1731783668" visible="true" version="1" changeset="11423858" timestamp="2012-04-26T12:58:40Z" user="didier2020" uid="300459" lat="48.6534836" lon="2.2681386"/>
 <node id="1731783687" visible="true" version="1" changeset="11423858" timestamp="2012-04-26T12:58:40Z" user="didier2020" uid="300459" lat="48.6534921" lon="2.2687795"/>
 <node id="1731783689" visible="true" version="1" changeset="11423858" timestamp="2012-04-26T12:58:40Z" user="didier2020" uid="300459" lat="48.6534922" lon="2.2687537"/>
 <node id="1731783718" visible="true" version="1" changeset="11423858" timestamp="2012-04-26T12:58:42Z" user="didier2020" uid="300459" lat="48.6535167" lon="2.2686403"/>
 <node id="1731783719" visible="true" version="1" changeset="11423858" timestamp="2012-04-26T12:58:42Z" user="didier2020" uid="300459" lat="48.6535169" lon="2.2687545"/>
 <node id="1731783740" visible="true" version="1" changeset="11423858" timestamp="2012-04-26T12:58:42Z" user="didier2020" uid="300459" lat="48.6535260" lon="2.2681655"/>
 <node id="1731783742" visible="true" version="1" changeset="11423858" timestamp="2012-04-26T12:58:42Z" user="didier2020" uid="300459" lat="48.6535268" lon="2.2682868"/>
 <node id="1731783770" visible="true" version="1" changeset="11423858" timestamp="2012-04-26T12:58:43Z" user="didier2020" uid="300459" lat="48.6535405" lon="2.2686401"/>
 <node id="1731783774" visible="true" version="1" changeset="11423858" timestamp="2012-04-26T12:58:44Z" user="didier2020" uid="300459" lat="48.6535423" lon="2.2687552"/>
 <node id="1731783803" visible="true" version="1" changeset="11423858" timestamp="2012-04-26T12:58:44Z" user="didier2020" uid="300459" lat="48.6535499" lon="2.2681645"/>
 <node id="1731783808" visible="true" version="1" changeset="11423858" timestamp="2012-04-26T12:58:44Z" user="didier2020" uid="300459" lat="48.6535513" lon="2.2682873"/>
 <node id="1731783844" visible="true" version="1" changeset="11423858" timestamp="2012-04-26T12:58:45Z" user="didier2020" uid="300459" lat="48.6535646" lon="2.2687551"/>
 <node id="1731783851" visible="true" version="1" changeset="11423858" timestamp="2012-04-26T12:58:46Z" user="didier2020" uid="300459" lat="48.6535660" lon="2.2687787"/>
 <node id="1731783863" visible="true" version="1" changeset="11423858" timestamp="2012-04-26T12:58:46Z" user="didier2020" uid="300459" lat="48.6535766" lon="2.2687551"/>
 <node id="1731783864" visible="true" version="1" changeset="11423858" timestamp="2012-04-26T12:58:46Z" user="didier2020" uid="300459" lat="48.6535768" lon="2.2687787"/>
 <node id="1731783905" visible="true" version="1" changeset="11423858" timestamp="2012-04-26T12:58:47Z" user="didier2020" uid="300459" lat="48.6535929" lon="2.2681637"/>
 <node id="1731783922" visible="true" version="1" changeset="11423858" timestamp="2012-04-26T12:58:47Z" user="didier2020" uid="300459" lat="48.6535942" lon="2.2681361"/>
 <node id="1731783935" visible="true" version="1" changeset="11423858" timestamp="2012-04-26T12:58:48Z" user="didier2020" uid="300459" lat="48.6536054" lon="2.2686385"/>
 <node id="1731783941" visible="true" version="1" changeset="11423858" timestamp="2012-04-26T12:58:48Z" user="didier2020" uid="300459" lat="48.6536070" lon="2.2687787"/>
 <node id="1731783996" visible="true" version="1" changeset="11423858" timestamp="2012-04-26T12:58:49Z" user="didier2020" uid="300459" lat="48.6536203" lon="2.2681370"/>
 <node id="1731784002" visible="true" version="1" changeset="11423858" timestamp="2012-04-26T12:58:49Z" user="didier2020" uid="300459" lat="48.6536210" lon="2.2682895"/>
 <node id="1731784041" visible="true" version="1" changeset="11423858" timestamp="2012-04-26T12:58:50Z" user="didier2020" uid="300459" lat="48.6536260" lon="2.2686234"/>
 <node id="1731784043" visible="true" version="1" changeset="11423858" timestamp="2012-04-26T12:58:50Z" user="didier2020" uid="300459" lat="48.6536309" lon="2.2687475"/>
 <node id="1731784091" visible="true" version="1" changeset="11423858" timestamp="2012-04-26T12:58:51Z" user="didier2020" uid="300459" lat="48.6536498" lon="2.2681297"/>
 <node id="1731784093" visible="true" version="1" changeset="11423858" timestamp="2012-04-26T12:58:51Z" user="didier2020" uid="300459" lat="48.6536517" lon="2.2682716"/>
 <node id="1731784135" visible="true" version="1" changeset="11423858" timestamp="2012-04-26T12:58:52Z" user="didier2020" uid="300459" lat="48.6536740" lon="2.2687482"/>
 <node id="1731784136" visible="true" version="1" changeset="11423858" timestamp="2012-04-26T12:58:52Z" user="didier2020" uid="300459" lat="48.6536748" lon="2.2687687"/>
 <node id="1731784143" visible="true" version="1" changeset="11423858" timestamp="2012-04-26T12:58:53Z" user="didier2020" uid="300459" lat="48.6536788" lon="2.2681304"/>
 <node id="1731784145" visible="true" version="1" changeset="11423858" timestamp="2012-04-26T12:58:53Z" user="didier2020" uid="300459" lat="48.6536793" lon="2.2681495"/>
 <node id="1731784238" visible="true" version="1" changeset="11423858" timestamp="2012-04-26T12:58:55Z" user="didier2020" uid="300459" lat="48.6537049" lon="2.2686263"/>
 <node id="1731784240" visible="true" version="1" changeset="11423858" timestamp="2012-04-26T12:58:55Z" user="didier2020" uid="300459" lat="48.6537068" lon="2.2687687"/>
 <node id="1731784274" visible="true" version="1" changeset="11423858" timestamp="2012-04-26T12:58:55Z" user="didier2020" uid="300459" lat="48.6537231" lon="2.2681494"/>
 <node id="1731784281" visible="true" version="1" changeset="11423858" timestamp="2012-04-26T12:58:56Z" user="didier2020" uid="300459" lat="48.6537235" lon="2.2681474"/>
 <node id="1731784284" visible="true" version="1" changeset="11423858" timestamp="2012-04-26T12:58:56Z" user="didier2020" uid="300459" lat="48.6537240" lon="2.2682746"/>
 <node id="1731784287" visible="true" version="1" changeset="11423858" timestamp="2012-04-26T12:58:56Z" user="didier2020" uid="300459" lat="48.6537255" lon="2.2686678"/>
 <node id="1731784288" visible="true" version="1" changeset="11423858" timestamp="2012-04-26T12:58:56Z" user="didier2020" uid="300459" lat="48.6537258" lon="2.2687886"/>
 <node id="1731784330" visible="true" version="1" changeset="11423858" timestamp="2012-04-26T12:58:57Z" user="didier2020" uid="300459" lat="48.6537465" lon="2.2681373"/>
 <node id="1731784338" visible="true" version="1" changeset="11423858" timestamp="2012-04-26T12:58:57Z" user="didier2020" uid="300459" lat="48.6537488" lon="2.2682566"/>
 <node id="1731784346" visible="true" version="1" changeset="11423858" timestamp="2012-04-26T12:58:57Z" user="didier2020" uid="300459" lat="48.6537520" lon="2.2687885"/>
 <node id="1731784361" visible="true" version="1" changeset="11423858" timestamp="2012-04-26T12:58:58Z" user="didier2020" uid="300459" lat="48.6537529" lon="2.2688040"/>
 <node id="1731784393" visible="true" version="1" changeset="11423858" timestamp="2012-04-26T12:58:58Z" user="didier2020" uid="300459" lat="48.6537723" lon="2.2681225"/>
 <node id="1731784403" visible="true" version="1" changeset="11423858" timestamp="2012-04-26T12:58:58Z" user="didier2020" uid="300459" lat="48.6537724" lon="2.2681373"/>
 <node id="1731784421" visible="true" version="1" changeset="11423858" timestamp="2012-04-26T12:58:59Z" user="didier2020" uid="300459" lat="48.6537779" lon="2.2687879"/>
 <node id="1731784425" visible="true" version="1" changeset="11423858" timestamp="2012-04-26T12:58:59Z" user="didier2020" uid="300459" lat="48.6537779" lon="2.2688040"/>
 <node id="1731784430" visible="true" version="1" changeset="11423858" timestamp="2012-04-26T12:58:59Z" user="didier2020" uid="300459" lat="48.6537804" lon="2.2686685"/>
 <node id="1731784432" visible="true" version="1" changeset="11423858" timestamp="2012-04-26T12:58:59Z" user="didier2020" uid="300459" lat="48.6537822" lon="2.2686853"/>
 <node id="1731784469" visible="true" version="1" changeset="11423858" timestamp="2012-04-26T12:59:00Z" user="didier2020" uid="300459" lat="48.6537986" lon="2.2681217"/>
 <node id="1731784473" visible="true" version="1" changeset="11423858" timestamp="2012-04-26T12:59:00Z" user="didier2020" uid="300459" lat="48.6537987" lon="2.2681372"/>
 <node id="1731784480" visible="true" version="1" changeset="11423858" timestamp="2012-04-26T12:59:00Z" user="didier2020" uid="300459" lat="48.6538009" lon="2.2682417"/>
 <node id="1731784483" visible="true" version="1" changeset="11423858" timestamp="2012-04-26T12:59:00Z" user="didier2020" uid="300459" lat="48.6538009" lon="2.2682565"/>
 <node id="1731784494" visible="true" version="1" changeset="11423858" timestamp="2012-04-26T12:59:00Z" user="didier2020" uid="300459" lat="48.6538028" lon="2.2686861"/>
 <node id="1731784506" visible="true" version="1" changeset="11423858" timestamp="2012-04-26T12:59:01Z" user="didier2020" uid="300459" lat="48.6538043" lon="2.2688039"/>
 <node id="1731784527" visible="true" version="1" changeset="11423858" timestamp="2012-04-26T12:59:01Z" user="didier2020" uid="300459" lat="48.6538243" lon="2.2681218"/>
 <node id="1731784529" visible="true" version="1" changeset="11423858" timestamp="2012-04-26T12:59:01Z" user="didier2020" uid="300459" lat="48.6538251" lon="2.2682166"/>
 <node id="1731784531" visible="true" version="1" changeset="11423858" timestamp="2012-04-26T12:59:01Z" user="didier2020" uid="300459" lat="48.6538251" lon="2.2682400"/>
 <node id="1731784538" visible="true" version="1" changeset="11423858" timestamp="2012-04-26T12:59:01Z" user="didier2020" uid="300459" lat="48.6538364" lon="2.2686867"/>
 <node id="1731784541" visible="true" version="1" changeset="11423858" timestamp="2012-04-26T12:59:01Z" user="didier2020" uid="300459" lat="48.6538373" lon="2.2688025"/>
 <node id="1731784566" visible="true" version="1" changeset="11423858" timestamp="2012-04-26T12:59:02Z" user="didier2020" uid="300459" lat="48.6538574" lon="2.2684340"/>
 <node id="1731784570" visible="true" version="1" changeset="11423858" timestamp="2012-04-26T12:59:02Z" user="didier2020" uid="300459" lat="48.6538581" lon="2.2685705"/>
 <node id="1731784584" visible="true" version="1" changeset="11423858" timestamp="2012-04-26T12:59:02Z" user="didier2020" uid="300459" lat="48.6538629" lon="2.2686867"/>
 <node id="1731784588" visible="true" version="1" changeset="11423858" timestamp="2012-04-26T12:59:02Z" user="didier2020" uid="300459" lat="48.6538633" lon="2.2686684"/>
 <node id="1731784608" visible="true" version="1" changeset="11423858" timestamp="2012-04-26T12:59:03Z" user="didier2020" uid="300459" lat="48.6538669" lon="2.2687883"/>
 <node id="1731784615" visible="true" version="1" changeset="11423858" timestamp="2012-04-26T12:59:03Z" user="didier2020" uid="300459" lat="48.6538675" lon="2.2688024"/>
 <node id="1731784621" visible="true" version="1" changeset="11423858" timestamp="2012-04-26T12:59:03Z" user="didier2020" uid="300459" lat="48.6538699" lon="2.2683884"/>
 <node id="1731784623" visible="true" version="1" changeset="11423858" timestamp="2012-04-26T12:59:03Z" user="didier2020" uid="300459" lat="48.6538702" lon="2.2682924"/>
 <node id="1731784685" visible="true" version="1" changeset="11423858" timestamp="2012-04-26T12:59:04Z" user="didier2020" uid="300459" lat="48.6538915" lon="2.2688025"/>
 <node id="1731784689" visible="true" version="1" changeset="11423858" timestamp="2012-04-26T12:59:04Z" user="didier2020" uid="300459" lat="48.6538924" lon="2.2687884"/>
 <node id="1731784690" visible="true" version="1" changeset="11423858" timestamp="2012-04-26T12:59:04Z" user="didier2020" uid="300459" lat="48.6538930" lon="2.2682172"/>
 <node id="1731784691" visible="true" version="1" changeset="11423858" timestamp="2012-04-26T12:59:04Z" user="didier2020" uid="300459" lat="48.6538939" lon="2.2681187"/>
 <node id="1731784739" visible="true" version="1" changeset="11423858" timestamp="2012-04-26T12:59:05Z" user="didier2020" uid="300459" lat="48.6539173" lon="2.2686683"/>
 <node id="1731784741" visible="true" version="1" changeset="11423858" timestamp="2012-04-26T12:59:06Z" user="didier2020" uid="300459" lat="48.6539178" lon="2.2687854"/>
 <node id="1731784792" visible="true" version="1" changeset="11423858" timestamp="2012-04-26T12:59:07Z" user="didier2020" uid="300459" lat="48.6539316" lon="2.2685710"/>
 <node id="1731784793" visible="true" version="1" changeset="11423858" timestamp="2012-04-26T12:59:07Z" user="didier2020" uid="300459" lat="48.6539318" lon="2.2685154"/>
 <node id="1731784794" visible="true" version="1" changeset="11423858" timestamp="2012-04-26T12:59:07Z" user="didier2020" uid="300459" lat="48.6539321" lon="2.2684791"/>
 <node id="1731784830" visible="true" version="1" changeset="11423858" timestamp="2012-04-26T12:59:08Z" user="didier2020" uid="300459" lat="48.6539434" lon="2.2684346"/>
 <node id="1731784833" visible="true" version="1" changeset="11423858" timestamp="2012-04-26T12:59:08Z" user="didier2020" uid="300459" lat="48.6539439" lon="2.2684762"/>
 <node id="1731784840" visible="true" version="1" changeset="11423858" timestamp="2012-04-26T12:59:08Z" user="didier2020" uid="300459" lat="48.6539443" lon="2.2685144"/>
 <node id="1731784859" visible="true" version="1" changeset="11423858" timestamp="2012-04-26T12:59:08Z" user="didier2020" uid="300459" lat="48.6539453" lon="2.2683325"/>
 <node id="1731784861" visible="true" version="1" changeset="11423858" timestamp="2012-04-26T12:59:08Z" user="didier2020" uid="300459" lat="48.6539456" lon="2.2683525"/>
 <node id="1731784869" visible="true" version="1" changeset="11423858" timestamp="2012-04-26T12:59:09Z" user="didier2020" uid="300459" lat="48.6539463" lon="2.2683910"/>
 <node id="1731784952" visible="true" version="1" changeset="11423858" timestamp="2012-04-26T12:59:11Z" user="didier2020" uid="300459" lat="48.6539604" lon="2.2681208"/>
 <node id="1731784978" visible="true" version="1" changeset="11423858" timestamp="2012-04-26T12:59:11Z" user="didier2020" uid="300459" lat="48.6539619" lon="2.2681490"/>
 <node id="1731784981" visible="true" version="1" changeset="11423858" timestamp="2012-04-26T12:59:11Z" user="didier2020" uid="300459" lat="48.6539624" lon="2.2683318"/>
 <node id="1731784982" visible="true" version="1" changeset="11423858" timestamp="2012-04-26T12:59:11Z" user="didier2020" uid="300459" lat="48.6539624" lon="2.2683516"/>
 <node id="1731784984" visible="true" version="1" changeset="11423858" timestamp="2012-04-26T12:59:11Z" user="didier2020" uid="300459" lat="48.6539628" lon="2.2682958"/>
 <node id="1731785053" visible="true" version="1" changeset="11423858" timestamp="2012-04-26T12:59:12Z" user="didier2020" uid="300459" lat="48.6539793" lon="2.2681505"/>
 <node id="1731785059" visible="true" version="1" changeset="11423858" timestamp="2012-04-26T12:59:12Z" user="didier2020" uid="300459" lat="48.6539809" lon="2.2682180"/>
 <node id="1731785450" visible="true" version="1" changeset="11423858" timestamp="2012-04-26T12:59:19Z" user="didier2020" uid="300459" lat="48.6540513" lon="2.2688085"/>
 <node id="1731785453" visible="true" version="1" changeset="11423858" timestamp="2012-04-26T12:59:19Z" user="didier2020" uid="300459" lat="48.6540514" lon="2.2688720"/>
 <node id="1731785466" visible="true" version="1" changeset="11423858" timestamp="2012-04-26T12:59:20Z" user="didier2020" uid="300459" lat="48.6540589" lon="2.2689772"/>
 <node id="1731785470" visible="true" version="1" changeset="11423858" timestamp="2012-04-26T12:59:20Z" user="didier2020" uid="300459" lat="48.6540593" lon="2.2689131"/>
 <node id="1731785503" visible="true" version="1" changeset="11423858" timestamp="2012-04-26T12:59:20Z" user="didier2020" uid="300459" lat="48.6540632" lon="2.2687133"/>
 <node id="1731785508" visible="true" version="1" changeset="11423858" timestamp="2012-04-26T12:59:20Z" user="didier2020" uid="300459" lat="48.6540715" lon="2.2687740"/>
 <node id="1731785510" visible="true" version="1" changeset="11423858" timestamp="2012-04-26T12:59:20Z" user="didier2020" uid="300459" lat="48.6540715" lon="2.2688078"/>
 <node id="1731785516" visible="true" version="1" changeset="11423858" timestamp="2012-04-26T12:59:20Z" user="didier2020" uid="300459" lat="48.6540727" lon="2.2686720"/>
 <node id="1731785547" visible="true" version="1" changeset="11423858" timestamp="2012-04-26T12:59:21Z" user="didier2020" uid="300459" lat="48.6540751" lon="2.2689793"/>
 <node id="1731785552" visible="true" version="1" changeset="11423858" timestamp="2012-04-26T12:59:21Z" user="didier2020" uid="300459" lat="48.6540765" lon="2.2690090"/>
 <node id="1731785554" visible="true" version="1" changeset="11423858" timestamp="2012-04-26T12:59:21Z" user="didier2020" uid="300459" lat="48.6540796" lon="2.2686354"/>
 <node id="1731785555" visible="true" version="1" changeset="11423858" timestamp="2012-04-26T12:59:21Z" user="didier2020" uid="300459" lat="48.6540810" lon="2.2686762"/>
 <node id="1731785584" visible="true" version="1" changeset="11423858" timestamp="2012-04-26T12:59:22Z" user="didier2020" uid="300459" lat="48.6540864" lon="2.2685523"/>
 <node id="1731785595" visible="true" version="1" changeset="11423858" timestamp="2012-04-26T12:59:22Z" user="didier2020" uid="300459" lat="48.6540892" lon="2.2684892"/>
 <node id="1731785599" visible="true" version="1" changeset="11423858" timestamp="2012-04-26T12:59:22Z" user="didier2020" uid="300459" lat="48.6540895" lon="2.2686381"/>
 <node id="1731785647" visible="true" version="1" changeset="11423858" timestamp="2012-04-26T12:59:23Z" user="didier2020" uid="300459" lat="48.6540964" lon="2.2684516"/>
 <node id="1731785657" visible="true" version="1" changeset="11423858" timestamp="2012-04-26T12:59:23Z" user="didier2020" uid="300459" lat="48.6540976" lon="2.2686014"/>
 <node id="1731785660" visible="true" version="1" changeset="11423858" timestamp="2012-04-26T12:59:23Z" user="didier2020" uid="300459" lat="48.6540980" lon="2.2684949"/>
 <node id="1731785697" visible="true" version="1" changeset="11423858" timestamp="2012-04-26T12:59:24Z" user="didier2020" uid="300459" lat="48.6541036" lon="2.2684136"/>
 <node id="1731785711" visible="true" version="1" changeset="11423858" timestamp="2012-04-26T12:59:24Z" user="didier2020" uid="300459" lat="48.6541046" lon="2.2684568"/>
 <node id="1731785787" visible="true" version="1" changeset="11423858" timestamp="2012-04-26T12:59:26Z" user="didier2020" uid="300459" lat="48.6541351" lon="2.2688769"/>
 <node id="1731785792" visible="true" version="1" changeset="11423858" timestamp="2012-04-26T12:59:26Z" user="didier2020" uid="300459" lat="48.6541364" lon="2.2687798"/>
 <node id="1731785802" visible="true" version="1" changeset="11423858" timestamp="2012-04-26T12:59:26Z" user="didier2020" uid="300459" lat="48.6541401" lon="2.2687464"/>
 <node id="1731785831" visible="true" version="1" changeset="11423858" timestamp="2012-04-26T12:59:27Z" user="didier2020" uid="300459" lat="48.6541440" lon="2.2690110"/>
 <node id="1731785835" visible="true" version="1" changeset="11423858" timestamp="2012-04-26T12:59:27Z" user="didier2020" uid="300459" lat="48.6541444" lon="2.2689134"/>
 <node id="1731785844" visible="true" version="1" changeset="11423858" timestamp="2012-04-26T12:59:27Z" user="didier2020" uid="300459" lat="48.6541463" lon="2.2687087"/>
 <node id="1731785872" visible="true" version="1" changeset="11423858" timestamp="2012-04-26T12:59:28Z" user="didier2020" uid="300459" lat="48.6541573" lon="2.2687108"/>
 <node id="1731785903" visible="true" version="1" changeset="11423858" timestamp="2012-04-26T12:59:29Z" user="didier2020" uid="300459" lat="48.6541626" lon="2.2685854"/>
 <node id="1731785935" visible="true" version="1" changeset="11423858" timestamp="2012-04-26T12:59:29Z" user="didier2020" uid="300459" lat="48.6541709" lon="2.2686380"/>
 <node id="1731785945" visible="true" version="1" changeset="11423858" timestamp="2012-04-26T12:59:30Z" user="didier2020" uid="300459" lat="48.6541826" lon="2.2684474"/>
 <node id="1731783475" visible="true" version="2" changeset="13427292" timestamp="2012-10-09T13:45:27Z" user="botdidier2020" uid="870861" lat="48.6533864" lon="2.2687514"/>
 <node id="1731783504" visible="true" version="2" changeset="13427292" timestamp="2012-10-09T13:45:28Z" user="botdidier2020" uid="870861" lat="48.6534040" lon="2.2681672"/>
 <node id="2218919125" visible="true" version="1" changeset="15482069" timestamp="2013-03-24T17:21:51Z" user="Marcussacapuces91" uid="37548" lat="48.6523160" lon="2.2680450"/>
 <node id="2218919153" visible="true" version="1" changeset="15482069" timestamp="2013-03-24T17:21:52Z" user="Marcussacapuces91" uid="37548" lat="48.6543786" lon="2.2664686"/>
 <node id="2218919150" visible="true" version="2" changeset="29910536" timestamp="2015-04-01T17:42:56Z" user="Marcussacapuces91" uid="37548" lat="48.6537737" lon="2.2661928"/>
 <node id="251745576" visible="true" version="3" changeset="15482069" timestamp="2013-03-24T17:22:15Z" user="Marcussacapuces91" uid="37548" lat="48.6556102" lon="2.2687907"/>
 <node id="255424964" visible="true" version="2" changeset="15482069" timestamp="2013-03-24T17:22:15Z" user="Marcussacapuces91" uid="37548" lat="48.6524202" lon="2.2680310"/>
 <node id="255424968" visible="true" version="2" changeset="15482069" timestamp="2013-03-24T17:22:15Z" user="Marcussacapuces91" uid="37548" lat="48.6561163" lon="2.2690136"/>
 <node id="255424971" visible="true" version="2" changeset="15482069" timestamp="2013-03-24T17:22:15Z" user="Marcussacapuces91" uid="37548" lat="48.6577210" lon="2.2693073"/>
 <node id="3428139532" visible="true" version="1" changeset="29866510" timestamp="2015-03-31T06:02:13Z" user="Marcussacapuces91" uid="37548" lat="48.6502632" lon="2.2688988"/>
 <node id="3428139533" visible="true" version="1" changeset="29866510" timestamp="2015-03-31T06:02:13Z" user="Marcussacapuces91" uid="37548" lat="48.6506090" lon="2.2686411"/>
 <node id="3428139546" visible="true" version="1" changeset="29866510" timestamp="2015-03-31T06:02:13Z" user="Marcussacapuces91" uid="37548" lat="48.6535305" lon="2.2679715"/>
 <node id="3428139548" visible="true" version="1" changeset="29866510" timestamp="2015-03-31T06:02:13Z" user="Marcussacapuces91" uid="37548" lat="48.6537823" lon="2.2704836">
  <tag k="highway" v="turning_circle"/>
  <tag k="source" v="cadastre-dgi-fr source : Direction Générale des Impôts - Cadastre. Mise à jour : 2015"/>
 </node>
 <node id="3428139550" visible="true" version="1" changeset="29866510" timestamp="2015-03-31T06:02:13Z" user="Marcussacapuces91" uid="37548" lat="48.6541551" lon="2.2680040"/>
 <node id="3428139552" visible="true" version="1" changeset="29866510" timestamp="2015-03-31T06:02:13Z" user="Marcussacapuces91" uid="37548" lat="48.6547991" lon="2.2682150"/>
 <node id="3428139555" visible="true" version="1" changeset="29866510" timestamp="2015-03-31T06:02:13Z" user="Marcussacapuces91" uid="37548" lat="48.6551811" lon="2.2684575"/>
 <node id="3428139557" visible="true" version="1" changeset="29866510" timestamp="2015-03-31T06:02:13Z" user="Marcussacapuces91" uid="37548" lat="48.6558506" lon="2.2689079"/>
 <node id="3428139560" visible="true" version="1" changeset="29866510" timestamp="2015-03-31T06:02:14Z" user="Marcussacapuces91" uid="37548" lat="48.6567504" lon="2.2692057"/>
 <node id="3428139573" visible="true" version="1" changeset="29866510" timestamp="2015-03-31T06:02:14Z" user="Marcussacapuces91" uid="37548" lat="48.6576339" lon="2.2693036"/>
 <node id="255424960" visible="true" version="2" changeset="29866510" timestamp="2015-03-31T06:02:16Z" user="Marcussacapuces91" uid="37548" lat="48.6501946" lon="2.2690062"/>
 <node id="255424961" visible="true" version="2" changeset="29866510" timestamp="2015-03-31T06:02:16Z" user="Marcussacapuces91" uid="37548" lat="48.6504957" lon="2.2686989"/>
 <node id="255424962" visible="true" version="2" changeset="29866510" timestamp="2015-03-31T06:02:16Z" user="Marcussacapuces91" uid="37548" lat="48.6513831" lon="2.2683428"/>
 <node id="255424965" visible="true" version="2" changeset="29866510" timestamp="2015-03-31T06:02:16Z" user="Marcussacapuces91" uid="37548" lat="48.6539741" lon="2.2679786"/>
 <node id="255424966" visible="true" version="2" changeset="29866510" timestamp="2015-03-31T06:02:16Z" user="Marcussacapuces91" uid="37548" lat="48.6544801" lon="2.2680983"/>
 <node id="255424967" visible="true" version="2" changeset="29866510" timestamp="2015-03-31T06:02:16Z" user="Marcussacapuces91" uid="37548" lat="48.6549975" lon="2.2683276"/>
 <node id="255424969" visible="true" version="3" changeset="29866510" timestamp="2015-03-31T06:02:16Z" user="Marcussacapuces91" uid="37548" lat="48.6564176" lon="2.2691362"/>
 <node id="255424970" visible="true" version="2" changeset="29866510" timestamp="2015-03-31T06:02:16Z" user="Marcussacapuces91" uid="37548" lat="48.6570850" lon="2.2692670"/>
 <node id="255425812" visible="true" version="3" changeset="29866510" timestamp="2015-03-31T06:02:16Z" user="Marcussacapuces91" uid="37548" lat="48.6566722" lon="2.2691930"/>
 <node id="298427900" visible="true" version="2" changeset="29866510" timestamp="2015-03-31T06:02:16Z" user="Marcussacapuces91" uid="37548" lat="48.6503400" lon="2.2688158"/>
 <node id="3191577770" visible="true" version="2" changeset="29866510" timestamp="2015-03-31T06:02:16Z" user="Marcussacapuces91" uid="37548" lat="48.6503892" lon="2.2687547"/>
 <node id="3429654505" visible="true" version="1" changeset="29896648" timestamp="2015-04-01T05:33:03Z" user="Marcussacapuces91" uid="37548" lat="48.6530378" lon="2.2682398"/>
 <node id="3429654506" visible="true" version="1" changeset="29896648" timestamp="2015-04-01T05:33:03Z" user="Marcussacapuces91" uid="37548" lat="48.6530823" lon="2.2689246">
  <tag k="highway" v="turning_circle"/>
  <tag k="source" v="cadastre-dgi-fr source : Direction Générale des Impôts - Cadastre. Mise à jour : 2015"/>
 </node>
 <node id="3429654507" visible="true" version="1" changeset="29896648" timestamp="2015-04-01T05:33:03Z" user="Marcussacapuces91" uid="37548" lat="48.6530968" lon="2.2693395"/>
 <node id="3429654508" visible="true" version="1" changeset="29896648" timestamp="2015-04-01T05:33:03Z" user="Marcussacapuces91" uid="37548" lat="48.6537799" lon="2.2700750"/>
 <node id="3429654509" visible="true" version="1" changeset="29896648" timestamp="2015-04-01T05:33:03Z" user="Marcussacapuces91" uid="37548" lat="48.6539582" lon="2.2689313">
  <tag k="highway" v="turning_circle"/>
  <tag k="source" v="cadastre-dgi-fr source : Direction Générale des Impôts - Cadastre. Mise à jour : 2015"/>
 </node>
 <node id="3429654510" visible="true" version="1" changeset="29896648" timestamp="2015-04-01T05:33:03Z" user="Marcussacapuces91" uid="37548" lat="48.6539626" lon="2.2690427"/>
 <node id="3429654511" visible="true" version="1" changeset="29896648" timestamp="2015-04-01T05:33:03Z" user="Marcussacapuces91" uid="37548" lat="48.6539860" lon="2.2688285"/>
 <node id="3429654512" visible="true" version="1" changeset="29896648" timestamp="2015-04-01T05:33:03Z" user="Marcussacapuces91" uid="37548" lat="48.6540518" lon="2.2682769"/>
 <node id="3429654513" visible="true" version="1" changeset="29896648" timestamp="2015-04-01T05:33:03Z" user="Marcussacapuces91" uid="37548" lat="48.6541010" lon="2.2679964"/>
 <node id="3429656974" visible="true" version="1" changeset="29896648" timestamp="2015-04-01T05:37:02Z" user="Marcussacapuces91" uid="37548" lat="48.6542554" lon="2.2671808"/>
 <node id="3429656975" visible="true" version="1" changeset="29896648" timestamp="2015-04-01T05:37:03Z" user="Marcussacapuces91" uid="37548" lat="48.6543080" lon="2.2668924"/>
 <node id="3428139551" visible="true" version="2" changeset="29896648" timestamp="2015-04-01T05:37:03Z" user="Marcussacapuces91" uid="37548" lat="48.6546736" lon="2.2681659"/>
 <node id="3429659833" visible="true" version="1" changeset="29896648" timestamp="2015-04-01T05:40:19Z" user="Marcussacapuces91" uid="37548" lat="48.6532006" lon="2.2668182">
  <tag k="highway" v="turning_circle"/>
  <tag k="source" v="cadastre-dgi-fr source : Direction Générale des Impôts - Cadastre. Mise à jour : 2015"/>
 </node>
 <node id="3429659834" visible="true" version="1" changeset="29896648" timestamp="2015-04-01T05:40:19Z" user="Marcussacapuces91" uid="37548" lat="48.6532228" lon="2.2675106"/>
 <node id="3429659836" visible="true" version="1" changeset="29896648" timestamp="2015-04-01T05:40:19Z" user="Marcussacapuces91" uid="37548" lat="48.6532710" lon="2.2676788"/>
 <node id="3429659837" visible="true" version="2" changeset="29910536" timestamp="2015-04-01T17:38:53Z" user="Marcussacapuces91" uid="37548" lat="48.6532803" lon="2.2679977"/>
 <node id="3429659835" visible="true" version="2" changeset="29910536" timestamp="2015-04-01T17:42:56Z" user="Marcussacapuces91" uid="37548" lat="48.6532341" lon="2.2669385"/>
 <node id="3430520765" visible="true" version="1" changeset="29910536" timestamp="2015-04-01T17:38:51Z" user="Marcussacapuces91" uid="37548" lat="48.6542049" lon="2.2675757"/>
 <node id="3428139542" visible="true" version="2" changeset="29910536" timestamp="2015-04-01T17:38:53Z" user="Marcussacapuces91" uid="37548" lat="48.6530352" lon="2.2680219"/>
 <node id="3430528994" visible="true" version="1" changeset="29910536" timestamp="2015-04-01T17:42:55Z" user="Marcussacapuces91" uid="37548" lat="48.6532370" lon="2.2670264"/>
 <node id="3430528995" visible="true" version="1" changeset="29910536" timestamp="2015-04-01T17:42:55Z" user="Marcussacapuces91" uid="37548" lat="48.6534996" lon="2.2673344"/>
 <node id="3430528996" visible="true" version="1" changeset="29910536" timestamp="2015-04-01T17:42:55Z" user="Marcussacapuces91" uid="37548" lat="48.6535268" lon="2.2671222"/>
 <node id="3430528997" visible="true" version="1" changeset="29910536" timestamp="2015-04-01T17:42:55Z" user="Marcussacapuces91" uid="37548" lat="48.6535278" lon="2.2679056"/>
 <node id="3430528998" visible="true" version="1" changeset="29910536" timestamp="2015-04-01T17:42:55Z" user="Marcussacapuces91" uid="37548" lat="48.6535774" lon="2.2670109"/>
 <node id="3430528999" visible="true" version="1" changeset="29910536" timestamp="2015-04-01T17:42:55Z" user="Marcussacapuces91" uid="37548" lat="48.6537613" lon="2.2662517"/>
 <way id="161183433" visible="true" version="1" changeset="11423858" timestamp="2012-04-26T13:23:05Z" user="didier2020" uid="300459">
  <nd ref="1731784473"/>
  <nd ref="1731784469"/>
  <nd ref="1731784527"/>
  <nd ref="1731784529"/>
  <nd ref="1731784531"/>
  <nd ref="1731784480"/>
  <nd ref="1731784483"/>
  <nd ref="1731784338"/>
  <nd ref="1731784330"/>
  <nd ref="1731784403"/>
  <nd ref="1731784473"/>
  <tag k="building" v="yes"/>
  <tag k="source" v="cadastre-dgi-fr source : Direction Générale des Impôts - Cadastre. Mise à jour : 2012"/>
 </way>
 <way id="161183846" visible="true" version="1" changeset="11423858" timestamp="2012-04-26T13:25:17Z" user="didier2020" uid="300459">
  <nd ref="1731784281"/>
  <nd ref="1731784284"/>
  <nd ref="1731784274"/>
  <nd ref="1731784281"/>
  <tag k="building" v="yes"/>
  <tag k="source" v="cadastre-dgi-fr source : Direction Générale des Impôts - Cadastre. Mise à jour : 2012"/>
 </way>
 <way id="161184333" visible="true" version="1" changeset="11423858" timestamp="2012-04-26T13:27:31Z" user="didier2020" uid="300459">
  <nd ref="1731784393"/>
  <nd ref="1731784469"/>
  <nd ref="1731784473"/>
  <nd ref="1731784403"/>
  <nd ref="1731784393"/>
  <tag k="building" v="yes"/>
  <tag k="source" v="cadastre-dgi-fr source : Direction Générale des Impôts - Cadastre. Mise à jour : 2012"/>
  <tag k="wall" v="no"/>
 </way>
 <way id="161184613" visible="true" version="1" changeset="11423858" timestamp="2012-04-26T13:28:53Z" user="didier2020" uid="300459">
  <nd ref="1731784685"/>
  <nd ref="1731784615"/>
  <nd ref="1731784608"/>
  <nd ref="1731784689"/>
  <nd ref="1731784685"/>
  <tag k="building" v="yes"/>
  <tag k="source" v="cadastre-dgi-fr source : Direction Générale des Impôts - Cadastre. Mise à jour : 2012"/>
  <tag k="wall" v="no"/>
 </way>
 <way id="161186388" visible="true" version="1" changeset="11423858" timestamp="2012-04-26T13:35:26Z" user="didier2020" uid="300459">
  <nd ref="1731783687"/>
  <nd ref="1731783626"/>
  <nd ref="1731783623"/>
  <nd ref="1731783689"/>
  <nd ref="1731783687"/>
  <tag k="building" v="yes"/>
  <tag k="source" v="cadastre-dgi-fr source : Direction Générale des Impôts - Cadastre. Mise à jour : 2012"/>
  <tag k="wall" v="no"/>
 </way>
 <way id="161184761" visible="true" version="1" changeset="11423858" timestamp="2012-04-26T13:29:36Z" user="didier2020" uid="300459">
  <nd ref="1731783505"/>
  <nd ref="1731783504"/>
  <nd ref="1731783484"/>
  <nd ref="1731783485"/>
  <nd ref="1731783505"/>
  <tag k="building" v="yes"/>
  <tag k="source" v="cadastre-dgi-fr source : Direction Générale des Impôts - Cadastre. Mise à jour : 2012"/>
  <tag k="wall" v="no"/>
 </way>
 <way id="161184786" visible="true" version="1" changeset="11423858" timestamp="2012-04-26T13:29:43Z" user="didier2020" uid="300459">
  <nd ref="1731785595"/>
  <nd ref="1731785647"/>
  <nd ref="1731785711"/>
  <nd ref="1731785660"/>
  <nd ref="1731785595"/>
  <tag k="building" v="yes"/>
  <tag k="source" v="cadastre-dgi-fr source : Direction Générale des Impôts - Cadastre. Mise à jour : 2012"/>
  <tag k="wall" v="no"/>
 </way>
 <way id="161184904" visible="true" version="1" changeset="11423858" timestamp="2012-04-26T13:30:10Z" user="didier2020" uid="300459">
  <nd ref="1731783851"/>
  <nd ref="1731783844"/>
  <nd ref="1731783863"/>
  <nd ref="1731783864"/>
  <nd ref="1731783851"/>
  <tag k="building" v="yes"/>
  <tag k="source" v="cadastre-dgi-fr source : Direction Générale des Impôts - Cadastre. Mise à jour : 2012"/>
  <tag k="wall" v="no"/>
 </way>
 <way id="161185200" visible="true" version="1" changeset="11423858" timestamp="2012-04-26T13:30:56Z" user="didier2020" uid="300459">
  <nd ref="1731784840"/>
  <nd ref="1731784793"/>
  <nd ref="1731784794"/>
  <nd ref="1731784833"/>
  <nd ref="1731784840"/>
  <tag k="building" v="yes"/>
  <tag k="source" v="cadastre-dgi-fr source : Direction Générale des Impôts - Cadastre. Mise à jour : 2012"/>
  <tag k="wall" v="no"/>
 </way>
 <way id="161185381" visible="true" version="1" changeset="11423858" timestamp="2012-04-26T13:31:37Z" user="didier2020" uid="300459">
  <nd ref="1731784361"/>
  <nd ref="1731784346"/>
  <nd ref="1731784421"/>
  <nd ref="1731784425"/>
  <nd ref="1731784361"/>
  <tag k="building" v="yes"/>
  <tag k="source" v="cadastre-dgi-fr source : Direction Générale des Impôts - Cadastre. Mise à jour : 2012"/>
  <tag k="wall" v="no"/>
 </way>
 <way id="161185402" visible="true" version="1" changeset="11423858" timestamp="2012-04-26T13:31:42Z" user="didier2020" uid="300459">
  <nd ref="1731784982"/>
  <nd ref="1731784861"/>
  <nd ref="1731784859"/>
  <nd ref="1731784981"/>
  <nd ref="1731784982"/>
  <tag k="building" v="yes"/>
  <tag k="source" v="cadastre-dgi-fr source : Direction Générale des Impôts - Cadastre. Mise à jour : 2012"/>
  <tag k="wall" v="no"/>
 </way>
 <way id="161185851" visible="true" version="1" changeset="11423858" timestamp="2012-04-26T13:33:22Z" user="didier2020" uid="300459">
  <nd ref="1731783479"/>
  <nd ref="1731783475"/>
  <nd ref="1731783494"/>
  <nd ref="1731783497"/>
  <nd ref="1731783479"/>
  <tag k="building" v="yes"/>
  <tag k="source" v="cadastre-dgi-fr source : Direction Générale des Impôts - Cadastre. Mise à jour : 2012"/>
  <tag k="wall" v="no"/>
 </way>
 <way id="161186704" visible="true" version="1" changeset="11423858" timestamp="2012-04-26T13:36:20Z" user="didier2020" uid="300459">
  <nd ref="1731783142"/>
  <nd ref="1731783144"/>
  <nd ref="1731783185"/>
  <nd ref="1731783186"/>
  <nd ref="1731783142"/>
  <tag k="building" v="yes"/>
  <tag k="source" v="cadastre-dgi-fr source : Direction Générale des Impôts - Cadastre. Mise à jour : 2012"/>
  <tag k="wall" v="no"/>
 </way>
 <way id="161186846" visible="true" version="1" changeset="11423858" timestamp="2012-04-26T13:36:44Z" user="didier2020" uid="300459">
  <nd ref="1731785554"/>
  <nd ref="1731785599"/>
  <nd ref="1731785555"/>
  <nd ref="1731785516"/>
  <nd ref="1731785554"/>
  <tag k="building" v="yes"/>
  <tag k="source" v="cadastre-dgi-fr source : Direction Générale des Impôts - Cadastre. Mise à jour : 2012"/>
  <tag k="wall" v="no"/>
 </way>
 <way id="161187939" visible="true" version="1" changeset="11423858" timestamp="2012-04-26T13:39:57Z" user="didier2020" uid="300459">
  <nd ref="1731783582"/>
  <nd ref="1731783579"/>
  <nd ref="1731783668"/>
  <nd ref="1731783666"/>
  <nd ref="1731783740"/>
  <nd ref="1731783742"/>
  <nd ref="1731783582"/>
  <tag k="building" v="yes"/>
  <tag k="source" v="cadastre-dgi-fr source : Direction Générale des Impôts - Cadastre. Mise à jour : 2012"/>
 </way>
 <way id="161188011" visible="true" version="1" changeset="11423858" timestamp="2012-04-26T13:40:06Z" user="didier2020" uid="300459">
  <nd ref="1731783030"/>
  <nd ref="1731783032"/>
  <nd ref="1731783173"/>
  <nd ref="1731783177"/>
  <nd ref="1731783216"/>
  <nd ref="1731783224"/>
  <nd ref="1731783030"/>
  <tag k="building" v="yes"/>
  <tag k="source" v="cadastre-dgi-fr source : Direction Générale des Impôts - Cadastre. Mise à jour : 2012"/>
 </way>
 <way id="161188159" visible="true" version="1" changeset="11423858" timestamp="2012-04-26T13:40:26Z" user="didier2020" uid="300459">
  <nd ref="1731783808"/>
  <nd ref="1731783803"/>
  <nd ref="1731783905"/>
  <nd ref="1731783922"/>
  <nd ref="1731783996"/>
  <nd ref="1731784002"/>
  <nd ref="1731783808"/>
  <tag k="building" v="yes"/>
  <tag k="source" v="cadastre-dgi-fr source : Direction Générale des Impôts - Cadastre. Mise à jour : 2012"/>
 </way>
 <way id="161188204" visible="true" version="1" changeset="11423858" timestamp="2012-04-26T13:40:32Z" user="didier2020" uid="300459">
  <nd ref="1731783393"/>
  <nd ref="1731783333"/>
  <nd ref="1731783328"/>
  <nd ref="1731783277"/>
  <nd ref="1731783268"/>
  <nd ref="1731783391"/>
  <nd ref="1731783393"/>
  <tag k="building" v="yes"/>
  <tag k="source" v="cadastre-dgi-fr source : Direction Générale des Impôts - Cadastre. Mise à jour : 2012"/>
 </way>
 <way id="161188262" visible="true" version="1" changeset="11423858" timestamp="2012-04-26T13:40:40Z" user="didier2020" uid="300459">
  <nd ref="1731785831"/>
  <nd ref="1731785552"/>
  <nd ref="1731785547"/>
  <nd ref="1731785466"/>
  <nd ref="1731785470"/>
  <nd ref="1731785835"/>
  <nd ref="1731785831"/>
  <tag k="building" v="yes"/>
  <tag k="source" v="cadastre-dgi-fr source : Direction Générale des Impôts - Cadastre. Mise à jour : 2012"/>
 </way>
 <way id="161188264" visible="true" version="1" changeset="11423858" timestamp="2012-04-26T13:40:41Z" user="didier2020" uid="300459">
  <nd ref="1731784093"/>
  <nd ref="1731784091"/>
  <nd ref="1731784143"/>
  <nd ref="1731784145"/>
  <nd ref="1731784274"/>
  <nd ref="1731784284"/>
  <nd ref="1731784093"/>
  <tag k="building" v="yes"/>
  <tag k="source" v="cadastre-dgi-fr source : Direction Générale des Impôts - Cadastre. Mise à jour : 2012"/>
 </way>
 <way id="161188330" visible="true" version="1" changeset="11423858" timestamp="2012-04-26T13:40:49Z" user="didier2020" uid="300459">
  <nd ref="1731783060"/>
  <nd ref="1731783059"/>
  <nd ref="1731783211"/>
  <nd ref="1731783209"/>
  <nd ref="1731783023"/>
  <nd ref="1731783022"/>
  <nd ref="1731783060"/>
  <tag k="building" v="yes"/>
  <tag k="source" v="cadastre-dgi-fr source : Direction Générale des Impôts - Cadastre. Mise à jour : 2012"/>
 </way>
 <way id="161188544" visible="true" version="1" changeset="11423858" timestamp="2012-04-26T13:41:33Z" user="didier2020" uid="300459">
  <nd ref="1731784691"/>
  <nd ref="1731784952"/>
  <nd ref="1731784978"/>
  <nd ref="1731785053"/>
  <nd ref="1731785059"/>
  <nd ref="1731784690"/>
  <nd ref="1731784691"/>
  <tag k="building" v="yes"/>
  <tag k="source" v="cadastre-dgi-fr source : Direction Générale des Impôts - Cadastre. Mise à jour : 2012"/>
 </way>
 <way id="161188567" visible="true" version="1" changeset="11423858" timestamp="2012-04-26T13:41:39Z" user="didier2020" uid="300459">
  <nd ref="1731784240"/>
  <nd ref="1731784136"/>
  <nd ref="1731784135"/>
  <nd ref="1731784043"/>
  <nd ref="1731784041"/>
  <nd ref="1731784238"/>
  <nd ref="1731784240"/>
  <tag k="building" v="yes"/>
  <tag k="source" v="cadastre-dgi-fr source : Direction Générale des Impôts - Cadastre. Mise à jour : 2012"/>
 </way>
 <way id="161188719" visible="true" version="1" changeset="11423858" timestamp="2012-04-26T13:42:18Z" user="didier2020" uid="300459">
  <nd ref="1731785787"/>
  <nd ref="1731785453"/>
  <nd ref="1731785450"/>
  <nd ref="1731785510"/>
  <nd ref="1731785508"/>
  <nd ref="1731785792"/>
  <nd ref="1731785787"/>
  <tag k="building" v="yes"/>
  <tag k="source" v="cadastre-dgi-fr source : Direction Générale des Impôts - Cadastre. Mise à jour : 2012"/>
 </way>
 <way id="161188824" visible="true" version="1" changeset="11423858" timestamp="2012-04-26T13:42:36Z" user="didier2020" uid="300459">
  <nd ref="1731783383"/>
  <nd ref="1731783273"/>
  <nd ref="1731783270"/>
  <nd ref="1731783329"/>
  <nd ref="1731783331"/>
  <nd ref="1731783382"/>
  <nd ref="1731783383"/>
  <tag k="building" v="yes"/>
  <tag k="source" v="cadastre-dgi-fr source : Direction Générale des Impôts - Cadastre. Mise à jour : 2012"/>
 </way>
 <way id="161188996" visible="true" version="1" changeset="11423858" timestamp="2012-04-26T13:43:04Z" user="didier2020" uid="300459">
  <nd ref="1731783623"/>
  <nd ref="1731783626"/>
  <nd ref="1731783573"/>
  <nd ref="1731783575"/>
  <nd ref="1731783718"/>
  <nd ref="1731783719"/>
  <nd ref="1731783689"/>
  <nd ref="1731783623"/>
  <tag k="building" v="yes"/>
  <tag k="source" v="cadastre-dgi-fr source : Direction Générale des Impôts - Cadastre. Mise à jour : 2012"/>
 </way>
 <way id="161189073" visible="true" version="1" changeset="11423858" timestamp="2012-04-26T13:43:24Z" user="didier2020" uid="300459">
  <nd ref="1731783774"/>
  <nd ref="1731783770"/>
  <nd ref="1731783935"/>
  <nd ref="1731783941"/>
  <nd ref="1731783864"/>
  <nd ref="1731783863"/>
  <nd ref="1731783844"/>
  <nd ref="1731783774"/>
  <tag k="building" v="yes"/>
  <tag k="source" v="cadastre-dgi-fr source : Direction Générale des Impôts - Cadastre. Mise à jour : 2012"/>
 </way>
 <way id="161189164" visible="true" version="1" changeset="11423858" timestamp="2012-04-26T13:43:52Z" user="didier2020" uid="300459">
  <nd ref="1731785660"/>
  <nd ref="1731785711"/>
  <nd ref="1731785647"/>
  <nd ref="1731785697"/>
  <nd ref="1731785945"/>
  <nd ref="1731785903"/>
  <nd ref="1731785584"/>
  <nd ref="1731785660"/>
  <tag k="building" v="yes"/>
  <tag k="source" v="cadastre-dgi-fr source : Direction Générale des Impôts - Cadastre. Mise à jour : 2012"/>
 </way>
 <way id="161189206" visible="true" version="1" changeset="11423858" timestamp="2012-04-26T13:44:06Z" user="didier2020" uid="300459">
  <nd ref="1731784794"/>
  <nd ref="1731784793"/>
  <nd ref="1731784792"/>
  <nd ref="1731784570"/>
  <nd ref="1731784566"/>
  <nd ref="1731784830"/>
  <nd ref="1731784833"/>
  <nd ref="1731784794"/>
  <tag k="building" v="yes"/>
  <tag k="source" v="cadastre-dgi-fr source : Direction Générale des Impôts - Cadastre. Mise à jour : 2012"/>
 </way>
 <way id="161189303" visible="true" version="1" changeset="11423858" timestamp="2012-04-26T13:44:35Z" user="didier2020" uid="300459">
  <nd ref="1731784859"/>
  <nd ref="1731784861"/>
  <nd ref="1731784869"/>
  <nd ref="1731784621"/>
  <nd ref="1731784623"/>
  <nd ref="1731784984"/>
  <nd ref="1731784981"/>
  <nd ref="1731784859"/>
  <tag k="building" v="yes"/>
  <tag k="source" v="cadastre-dgi-fr source : Direction Générale des Impôts - Cadastre. Mise à jour : 2012"/>
 </way>
 <way id="161189714" visible="true" version="1" changeset="11423858" timestamp="2012-04-26T13:46:53Z" user="didier2020" uid="300459">
  <nd ref="1731785555"/>
  <nd ref="1731785599"/>
  <nd ref="1731785657"/>
  <nd ref="1731785935"/>
  <nd ref="1731785872"/>
  <nd ref="1731785844"/>
  <nd ref="1731785802"/>
  <nd ref="1731785503"/>
  <nd ref="1731785516"/>
  <nd ref="1731785555"/>
  <tag k="building" v="yes"/>
  <tag k="source" v="cadastre-dgi-fr source : Direction Générale des Impôts - Cadastre. Mise à jour : 2012"/>
 </way>
 <way id="161189722" visible="true" version="1" changeset="11423858" timestamp="2012-04-26T13:46:56Z" user="didier2020" uid="300459">
  <nd ref="1731783084"/>
  <nd ref="1731783082"/>
  <nd ref="1731783194"/>
  <nd ref="1731783196"/>
  <nd ref="1731783226"/>
  <nd ref="1731783229"/>
  <nd ref="1731783186"/>
  <nd ref="1731783185"/>
  <nd ref="1731783144"/>
  <nd ref="1731783084"/>
  <tag k="building" v="yes"/>
  <tag k="source" v="cadastre-dgi-fr source : Direction Générale des Impôts - Cadastre. Mise à jour : 2012"/>
 </way>
 <way id="161189836" visible="true" version="1" changeset="11423858" timestamp="2012-04-26T13:47:33Z" user="didier2020" uid="300459">
  <nd ref="1731784288"/>
  <nd ref="1731784287"/>
  <nd ref="1731784430"/>
  <nd ref="1731784432"/>
  <nd ref="1731784494"/>
  <nd ref="1731784506"/>
  <nd ref="1731784425"/>
  <nd ref="1731784421"/>
  <nd ref="1731784346"/>
  <nd ref="1731784288"/>
  <tag k="building" v="yes"/>
  <tag k="source" v="cadastre-dgi-fr source : Direction Générale des Impôts - Cadastre. Mise à jour : 2012"/>
 </way>
 <way id="161189861" visible="true" version="1" changeset="11423858" timestamp="2012-04-26T13:47:40Z" user="didier2020" uid="300459">
  <nd ref="1731784584"/>
  <nd ref="1731784588"/>
  <nd ref="1731784739"/>
  <nd ref="1731784741"/>
  <nd ref="1731784689"/>
  <nd ref="1731784608"/>
  <nd ref="1731784615"/>
  <nd ref="1731784541"/>
  <nd ref="1731784538"/>
  <nd ref="1731784584"/>
  <tag k="building" v="yes"/>
  <tag k="source" v="cadastre-dgi-fr source : Direction Générale des Impôts - Cadastre. Mise à jour : 2012"/>
 </way>
 <way id="161188104" visible="true" version="2" changeset="13427292" timestamp="2012-10-09T13:44:25Z" user="botdidier2020" uid="870861">
  <nd ref="1731783530"/>
  <nd ref="1731783497"/>
  <nd ref="1731783494"/>
  <nd ref="1731783475"/>
  <nd ref="1731783435"/>
  <nd ref="1731783433"/>
  <nd ref="1731783528"/>
  <nd ref="1731783530"/>
  <tag k="building" v="yes"/>
  <tag k="source" v="cadastre-dgi-fr source : Direction Générale des Impôts - Cadastre. Mise à jour : 2012"/>
 </way>
 <way id="161188659" visible="true" version="2" changeset="13427292" timestamp="2012-10-09T13:44:26Z" user="botdidier2020" uid="870861">
  <nd ref="1731783533"/>
  <nd ref="1731783437"/>
  <nd ref="1731783442"/>
  <nd ref="1731783485"/>
  <nd ref="1731783484"/>
  <nd ref="1731783504"/>
  <nd ref="1731783537"/>
  <nd ref="1731783533"/>
  <tag k="building" v="yes"/>
  <tag k="source" v="cadastre-dgi-fr source : Direction Générale des Impôts - Cadastre. Mise à jour : 2012"/>
 </way>
 <way id="335852819" visible="true" version="1" changeset="29896648" timestamp="2015-04-01T05:33:03Z" user="Marcussacapuces91" uid="37548">
  <nd ref="3429654506"/>
  <nd ref="3429654507"/>
  <tag k="highway" v="residential"/>
  <tag k="name" v="Impasse Voltaire"/>
  <tag k="source" v="cadastre-dgi-fr source : Direction Générale des Impôts - Cadastre. Mise à jour : 2015"/>
 </way>
 <way id="335852821" visible="true" version="1" changeset="29896648" timestamp="2015-04-01T05:33:03Z" user="Marcussacapuces91" uid="37548">
  <nd ref="3429654513"/>
  <nd ref="3429654512"/>
  <nd ref="3429654511"/>
  <nd ref="3429654509"/>
  <nd ref="3429654510"/>
  <nd ref="3429654508"/>
  <nd ref="3428139548"/>
  <tag k="highway" v="residential"/>
  <tag k="name" v="Rue Jean de la Fontaine"/>
  <tag k="source" v="cadastre-dgi-fr source : Direction Générale des Impôts - Cadastre. Mise à jour : 2015"/>
 </way>
 <way id="335852820" visible="true" version="2" changeset="29910536" timestamp="2015-04-01T17:42:55Z" user="Marcussacapuces91" uid="37548">
  <nd ref="3429654509"/>
  <nd ref="3429654506"/>
  <tag k="highway" v="residential"/>
  <tag k="name" v="Rue Jean Jacques Rousseau"/>
  <tag k="source" v="cadastre-dgi-fr source : Direction Générale des Impôts - Cadastre. Mise à jour : 2015"/>
 </way>
 <way id="335705441" visible="true" version="3" changeset="29896648" timestamp="2015-04-01T05:40:19Z" user="Marcussacapuces91" uid="37548">
  <nd ref="255424960"/>
  <nd ref="3428139532"/>
  <nd ref="298427900"/>
  <nd ref="3191577770"/>
  <nd ref="255424961"/>
  <nd ref="3428139533"/>
  <nd ref="255424962"/>
  <nd ref="255424963"/>
  <nd ref="2218919125"/>
  <nd ref="255424964"/>
  <nd ref="3428139542"/>
  <nd ref="3429659837"/>
  <nd ref="3428139546"/>
  <nd ref="255424965"/>
  <nd ref="3429654513"/>
  <nd ref="3428139550"/>
  <nd ref="255424966"/>
  <nd ref="3428139551"/>
  <nd ref="3428139552"/>
  <nd ref="255424967"/>
  <nd ref="3428139555"/>
  <nd ref="251745576"/>
  <nd ref="3428139557"/>
  <nd ref="255424968"/>
  <nd ref="255424969"/>
  <nd ref="255425812"/>
  <nd ref="3428139560"/>
  <nd ref="255424970"/>
  <nd ref="3428139573"/>
  <nd ref="255424971"/>
  <tag k="highway" v="residential"/>
  <tag k="name" v="Vieux Chemin de Montlhéry"/>
  <tag k="source" v="cadastre-dgi-fr source : Direction Générale des Impôts - Cadastre. Mise à jour : 2015"/>
 </way>
 <way id="335853026" visible="true" version="2" changeset="29910536" timestamp="2015-04-01T17:38:53Z" user="Marcussacapuces91" uid="37548">
  <nd ref="2218919153"/>
  <nd ref="3429656975"/>
  <nd ref="3429656974"/>
  <nd ref="3430520765"/>
  <nd ref="3428139550"/>
  <tag k="highway" v="residential"/>
  <tag k="name" v="Chemin des Bas Rochers"/>
  <tag k="ref" v="CR 42"/>
  <tag k="source" v="cadastre-dgi-fr source : Direction Générale des Impôts - Cadastre. Mise à jour : 2015"/>
 </way>
 <way id="335961858" visible="true" version="1" changeset="29910536" timestamp="2015-04-01T17:42:55Z" user="Marcussacapuces91" uid="37548">
  <nd ref="3429654506"/>
  <nd ref="3429654505"/>
  <nd ref="3428139542"/>
  <tag k="highway" v="residential"/>
  <tag k="name" v="Rue Jean Jacques Rousseau"/>
  <tag k="source" v="cadastre-dgi-fr source : Direction Générale des Impôts - Cadastre. Mise à jour : 2015"/>
 </way>
 <way id="335961859" visible="true" version="1" changeset="29910536" timestamp="2015-04-01T17:42:55Z" user="Marcussacapuces91" uid="37548">
  <nd ref="2218919150"/>
  <nd ref="3430528999"/>
  <nd ref="3430528998"/>
  <nd ref="3430528996"/>
  <nd ref="3430528995"/>
  <nd ref="3430528997"/>
  <nd ref="3428139546"/>
  <tag k="highway" v="footway"/>
  <tag k="name" v="Sentier du Clos de la Brisarde"/>
 </way>
 <way id="335853583" visible="true" version="2" changeset="29910536" timestamp="2015-04-01T17:42:55Z" user="Marcussacapuces91" uid="37548">
  <nd ref="3429659833"/>
  <nd ref="3429659835"/>
  <nd ref="3430528994"/>
  <nd ref="3429659834"/>
  <nd ref="3429659836"/>
  <nd ref="3429659837"/>
  <tag k="highway" v="residential"/>
  <tag k="name" v="Impasse Alexandre Dumas"/>
  <tag k="source" v="cadastre-dgi-fr source : Direction Générale des Impôts - Cadastre. Mise à jour : 2015"/>
 </way>
</osm>
